/*
WARNING: Do NOT edit the input and output ports in this file in a text
editor if you plan to continue editing the block that represents it in
the Block Editor! File corruption is VERY likely to occur.
*/
/*
Copyright (C) 1991-2010 Altera Corporation
Your use of Altera Corporation's design tools, logic functions 
and other software and tools, and its AMPP partner logic 
functions, and any output files from any of the foregoing 
(including device programming or simulation files), and any 
associated documentation or information are expressly subject 
to the terms and conditions of the Altera Program License 
Subscription Agreement, Altera MegaCore Function License 
Agreement, or other applicable license agreement, including, 
without limitation, that your use is for the sole purpose of 
programming logic devices manufactured by Altera and sold by 
Altera or its authorized distributors.  Please refer to the 
applicable agreement for further details.
*/
(header "graphic" (version "1.3"))
(properties
	(page_setup "header_footer\nsaved on %d at %t \n\n%f\n\n\n\nmargin\n0.2\n0.348\n0.166\n0.333\norientation\n2\npaper_size\n17\npaper_source\n15\nfit_page_wide\n1\nfit_page_tall\n1\n")
)
(pin
	(input)
	(rect 1608 1096 1776 1112)
	(text "INPUT" (rect 133 0 161 10)(font "Arial" (font_size 6)))
	(text "clock" (rect 5 0 30 12)(font "Arial" ))
	(pt 168 8)
	(drawing
		(line (pt 92 12)(pt 117 12)(line_width 1))
		(line (pt 92 4)(pt 117 4)(line_width 1))
		(line (pt 121 8)(pt 168 8)(line_width 1))
		(line (pt 92 12)(pt 92 4)(line_width 1))
		(line (pt 117 4)(pt 121 8)(line_width 1))
		(line (pt 117 12)(pt 121 8)(line_width 1))
	)
	(text "VCC" (rect 136 7 156 17)(font "Arial" (font_size 6)))
)
(pin
	(input)
	(rect 960 1000 1128 1016)
	(text "INPUT" (rect 133 0 161 10)(font "Arial" (font_size 6)))
	(text "IN1[4..0]" (rect 5 0 48 12)(font "Arial" ))
	(pt 168 8)
	(drawing
		(line (pt 92 12)(pt 117 12)(line_width 1))
		(line (pt 92 4)(pt 117 4)(line_width 1))
		(line (pt 121 8)(pt 168 8)(line_width 1))
		(line (pt 92 12)(pt 92 4)(line_width 1))
		(line (pt 117 4)(pt 121 8)(line_width 1))
		(line (pt 117 12)(pt 121 8)(line_width 1))
	)
	(text "VCC" (rect 136 7 156 17)(font "Arial" (font_size 6)))
)
(pin
	(input)
	(rect 960 1032 1128 1048)
	(text "INPUT" (rect 133 0 161 10)(font "Arial" (font_size 6)))
	(text "IN2[4..0]" (rect 5 0 48 12)(font "Arial" ))
	(pt 168 8)
	(drawing
		(line (pt 92 12)(pt 117 12)(line_width 1))
		(line (pt 92 4)(pt 117 4)(line_width 1))
		(line (pt 121 8)(pt 168 8)(line_width 1))
		(line (pt 92 12)(pt 92 4)(line_width 1))
		(line (pt 117 4)(pt 121 8)(line_width 1))
		(line (pt 117 12)(pt 121 8)(line_width 1))
	)
	(text "VCC" (rect 136 7 156 17)(font "Arial" (font_size 6)))
)
(pin
	(output)
	(rect 2024 1032 2200 1048)
	(text "OUTPUT" (rect 1 0 39 10)(font "Arial" (font_size 6)))
	(text "OUT[5..0]" (rect 90 0 138 12)(font "Arial" ))
	(pt 0 8)
	(drawing
		(line (pt 0 8)(pt 52 8)(line_width 1))
		(line (pt 52 4)(pt 78 4)(line_width 1))
		(line (pt 52 12)(pt 78 12)(line_width 1))
		(line (pt 52 12)(pt 52 4)(line_width 1))
		(line (pt 78 4)(pt 82 8)(line_width 1))
		(line (pt 82 8)(pt 78 12)(line_width 1))
		(line (pt 78 12)(pt 82 8)(line_width 1))
	)
)
(symbol
	(rect 1336 1048 1384 1080)
	(text "WIRE" (rect 1 0 24 10)(font "Arial" (font_size 6)))
	(text "inst1" (rect 3 21 26 33)(font "Arial" ))
	(port
		(pt 0 16)
		(input)
		(text "IN" (rect 2 7 13 19)(font "Courier New" (bold))(invisible))
		(text "IN" (rect 2 7 13 19)(font "Courier New" (bold))(invisible))
		(line (pt 0 16)(pt 14 16)(line_width 1))
	)
	(port
		(pt 48 16)
		(output)
		(text "OUT" (rect 32 7 49 19)(font "Courier New" (bold))(invisible))
		(text "OUT" (rect 32 7 49 19)(font "Courier New" (bold))(invisible))
		(line (pt 32 16)(pt 48 16)(line_width 1))
	)
	(drawing
		(line (pt 14 7)(pt 32 16)(line_width 1))
		(line (pt 14 25)(pt 14 7)(line_width 1))
		(line (pt 14 25)(pt 32 16)(line_width 1))
	)
)
(symbol
	(rect 1152 968 1312 1080)
	(text "CL_SUM5" (rect 51 1 120 17)(font "Arial" (font_size 10)))
	(text "inst" (rect 8 96 25 108)(font "Arial" ))
	(port
		(pt 0 40)
		(input)
		(text "dataa[4..0]" (rect 0 0 60 14)(font "Arial" (font_size 8)))
		(text "dataa[4..0]" (rect 4 27 64 41)(font "Arial" (font_size 8)))
		(line (pt 0 40)(pt 64 40)(line_width 3))
	)
	(port
		(pt 0 72)
		(input)
		(text "datab[4..0]" (rect 0 0 60 14)(font "Arial" (font_size 8)))
		(text "datab[4..0]" (rect 4 59 64 73)(font "Arial" (font_size 8)))
		(line (pt 0 72)(pt 64 72)(line_width 3))
	)
	(port
		(pt 160 56)
		(output)
		(text "result[4..0]" (rect 0 0 60 14)(font "Arial" (font_size 8)))
		(text "result[4..0]" (rect 106 43 166 57)(font "Arial" (font_size 8)))
		(line (pt 160 56)(pt 96 56)(line_width 3))
	)
	(port
		(pt 160 96)
		(output)
		(text "cout" (rect 0 0 24 14)(font "Arial" (font_size 8)))
		(text "cout" (rect 136 83 160 97)(font "Arial" (font_size 8)))
		(line (pt 160 96)(pt 80 96)(line_width 1))
	)
	(drawing
		(text "A" (rect 66 34 75 48)(font "Arial" (font_size 8)))
		(text "B" (rect 66 66 74 80)(font "Arial" (font_size 8)))
		(text "A+B" (rect 73 50 97 64)(font "Arial" (font_size 8)))
		(line (pt 64 32)(pt 96 40)(line_width 1))
		(line (pt 96 40)(pt 96 72)(line_width 1))
		(line (pt 96 72)(pt 64 80)(line_width 1))
		(line (pt 64 80)(pt 64 32)(line_width 1))
		(line (pt 80 96)(pt 80 75)(line_width 1))
	)
)
(symbol
	(rect 1856 992 2000 1072)
	(text "CL_dff6" (rect 51 1 101 17)(font "Arial" (font_size 10)))
	(text "inst2" (rect 8 64 31 76)(font "Arial" ))
	(port
		(pt 0 32)
		(input)
		(text "data[5..0]" (rect 0 0 53 14)(font "Arial" (font_size 8)))
		(text "data[5..0]" (rect 20 26 73 40)(font "Arial" (font_size 8)))
		(line (pt 0 32)(pt 16 32)(line_width 3))
	)
	(port
		(pt 0 48)
		(input)
		(text "clock" (rect 0 0 29 14)(font "Arial" (font_size 8)))
		(text "clock" (rect 26 42 55 56)(font "Arial" (font_size 8)))
		(line (pt 0 48)(pt 16 48)(line_width 1))
	)
	(port
		(pt 144 48)
		(output)
		(text "q[5..0]" (rect 0 0 35 14)(font "Arial" (font_size 8)))
		(text "q[5..0]" (rect 95 42 130 56)(font "Arial" (font_size 8)))
		(line (pt 144 48)(pt 128 48)(line_width 3))
	)
	(drawing
		(text "DFF" (rect 109 17 131 29)(font "Arial" ))
		(line (pt 16 16)(pt 128 16)(line_width 1))
		(line (pt 128 16)(pt 128 64)(line_width 1))
		(line (pt 128 64)(pt 16 64)(line_width 1))
		(line (pt 16 64)(pt 16 16)(line_width 1))
		(line (pt 16 42)(pt 22 48)(line_width 1))
		(line (pt 22 48)(pt 16 54)(line_width 1))
	)
)
(connector
	(pt 1312 1064)
	(pt 1336 1064)
)
(connector
	(pt 2000 1040)
	(pt 2024 1040)
	(bus)
)
(connector
	(pt 1152 1008)
	(pt 1128 1008)
	(bus)
)
(connector
	(pt 1152 1040)
	(pt 1128 1040)
	(bus)
)
(connector
	(pt 1848 1040)
	(pt 1848 1104)
)
(connector
	(pt 1856 1040)
	(pt 1848 1040)
)
(connector
	(pt 1848 1104)
	(pt 1776 1104)
)
(connector
	(text "DEC_0_2[4..0]" (rect 1442 1008 1568 1027)(font "Arial" (font_size 12)(bold)))
	(pt 1432 1024)
	(pt 1312 1024)
	(bus)
)
(connector
	(text "DEC_0_2[5]" (rect 1456 1048 1562 1067)(font "Arial" (font_size 12)(bold)))
	(pt 1384 1064)
	(pt 1432 1064)
)
(connector
	(text "DEC_0_2[5..0]" (rect 1600 1008 1726 1027)(font "Arial" (font_size 12)(bold)))
	(pt 1736 1024)
	(pt 1856 1024)
	(bus)
)
