/*
WARNING: Do NOT edit the input and output ports in this file in a text
editor if you plan to continue editing the block that represents it in
the Block Editor! File corruption is VERY likely to occur.
*/
/*
Copyright (C) 1991-2010 Altera Corporation
Your use of Altera Corporation's design tools, logic functions 
and other software and tools, and its AMPP partner logic 
functions, and any output files from any of the foregoing 
(including device programming or simulation files), and any 
associated documentation or information are expressly subject 
to the terms and conditions of the Altera Program License 
Subscription Agreement, Altera MegaCore Function License 
Agreement, or other applicable license agreement, including, 
without limitation, that your use is for the sole purpose of 
programming logic devices manufactured by Altera and sold by 
Altera or its authorized distributors.  Please refer to the 
applicable agreement for further details.
*/
//#pragma file_not_in_maxplusii_format
(header "graphic" (version "1.3"))
(pin
	(input)
	(rect -1080 -792 -912 -776)
	(text "INPUT" (rect 125 0 153 10)(font "Arial" (font_size 6)))
	(text "adc[223..0]" (rect 5 0 60 12)(font "Arial" ))
	(pt 168 8)
	(drawing
		(line (pt 84 12)(pt 109 12)(line_width 1))
		(line (pt 84 4)(pt 109 4)(line_width 1))
		(line (pt 113 8)(pt 168 8)(line_width 1))
		(line (pt 84 12)(pt 84 4)(line_width 1))
		(line (pt 109 4)(pt 113 8)(line_width 1))
		(line (pt 109 12)(pt 113 8)(line_width 1))
	)
	(text "VCC" (rect 128 7 148 17)(font "Arial" (font_size 6)))
	(annotation_block (location)(rect -1160 -776 -1080 -760))
)
(pin
	(input)
	(rect -1072 -632 -904 -616)
	(text "INPUT" (rect 125 0 153 10)(font "Arial" (font_size 6)))
	(text "clock" (rect 5 0 30 12)(font "Arial" ))
	(pt 168 8)
	(drawing
		(line (pt 84 12)(pt 109 12)(line_width 1))
		(line (pt 84 4)(pt 109 4)(line_width 1))
		(line (pt 113 8)(pt 168 8)(line_width 1))
		(line (pt 84 12)(pt 84 4)(line_width 1))
		(line (pt 109 4)(pt 113 8)(line_width 1))
		(line (pt 109 12)(pt 113 8)(line_width 1))
	)
	(text "VCC" (rect 128 7 148 17)(font "Arial" (font_size 6)))
)
(pin
	(input)
	(rect -1080 -744 -880 -728)
	(text "INPUT" (rect 157 0 185 10)(font "Arial" (font_size 6)))
	(text "vme_control[255..0]" (rect 5 0 104 12)(font "Arial" ))
	(pt 200 8)
	(drawing
		(line (pt 116 12)(pt 141 12)(line_width 1))
		(line (pt 116 4)(pt 141 4)(line_width 1))
		(line (pt 145 8)(pt 200 8)(line_width 1))
		(line (pt 116 12)(pt 116 4)(line_width 1))
		(line (pt 141 4)(pt 145 8)(line_width 1))
		(line (pt 141 12)(pt 145 8)(line_width 1))
	)
	(text "VCC" (rect 160 7 180 17)(font "Arial" (font_size 6)))
)
(pin
	(output)
	(rect 80 -672 256 -656)
	(text "OUTPUT" (rect 1 0 39 10)(font "Arial" (font_size 6)))
	(text "CL_OUT[15..0]" (rect 90 0 164 12)(font "Arial" ))
	(pt 0 8)
	(drawing
		(line (pt 0 8)(pt 52 8)(line_width 1))
		(line (pt 52 4)(pt 78 4)(line_width 1))
		(line (pt 52 12)(pt 78 12)(line_width 1))
		(line (pt 52 12)(pt 52 4)(line_width 1))
		(line (pt 78 4)(pt 82 8)(line_width 1))
		(line (pt 82 8)(pt 78 12)(line_width 1))
		(line (pt 78 12)(pt 82 8)(line_width 1))
	)
)
(symbol
	(rect -568 -840 -408 -744)
	(text "CL_Channel" (rect 5 0 73 14)(font "Arial" (font_size 8)))
	(text "inst1" (rect 8 80 31 92)(font "Arial" ))
	(port
		(pt 0 32)
		(input)
		(text "clock" (rect 0 0 29 14)(font "Arial" (font_size 8)))
		(text "clock" (rect 21 27 50 41)(font "Arial" (font_size 8)))
		(line (pt 0 32)(pt 16 32)(line_width 1))
	)
	(port
		(pt 0 48)
		(input)
		(text "ADC_IN[13..0]" (rect 0 0 79 14)(font "Arial" (font_size 8)))
		(text "ADC_IN[13..0]" (rect 21 43 100 57)(font "Arial" (font_size 8)))
		(line (pt 0 48)(pt 16 48)(line_width 3))
	)
	(port
		(pt 0 64)
		(input)
		(text "TH[13..0]" (rect 0 0 50 14)(font "Arial" (font_size 8)))
		(text "TH[13..0]" (rect 21 59 71 73)(font "Arial" (font_size 8)))
		(line (pt 0 64)(pt 16 64)(line_width 3))
	)
	(port
		(pt 160 32)
		(output)
		(text "OUT" (rect 0 0 24 14)(font "Arial" (font_size 8)))
		(text "OUT" (rect 115 27 139 41)(font "Arial" (font_size 8)))
		(line (pt 160 32)(pt 144 32)(line_width 1))
	)
	(drawing
		(rectangle (rect 16 16 144 80)(line_width 1))
	)
)
(symbol
	(rect -568 -664 -408 -568)
	(text "CL_Channel" (rect 5 0 73 14)(font "Arial" (font_size 8)))
	(text "inst3" (rect 8 80 31 92)(font "Arial" ))
	(port
		(pt 0 32)
		(input)
		(text "clock" (rect 0 0 29 14)(font "Arial" (font_size 8)))
		(text "clock" (rect 21 27 50 41)(font "Arial" (font_size 8)))
		(line (pt 0 32)(pt 16 32)(line_width 1))
	)
	(port
		(pt 0 48)
		(input)
		(text "ADC_IN[13..0]" (rect 0 0 79 14)(font "Arial" (font_size 8)))
		(text "ADC_IN[13..0]" (rect 21 43 100 57)(font "Arial" (font_size 8)))
		(line (pt 0 48)(pt 16 48)(line_width 3))
	)
	(port
		(pt 0 64)
		(input)
		(text "TH[13..0]" (rect 0 0 50 14)(font "Arial" (font_size 8)))
		(text "TH[13..0]" (rect 21 59 71 73)(font "Arial" (font_size 8)))
		(line (pt 0 64)(pt 16 64)(line_width 3))
	)
	(port
		(pt 160 32)
		(output)
		(text "OUT" (rect 0 0 24 14)(font "Arial" (font_size 8)))
		(text "OUT" (rect 115 27 139 41)(font "Arial" (font_size 8)))
		(line (pt 160 32)(pt 144 32)(line_width 1))
	)
	(drawing
		(rectangle (rect 16 16 144 80)(line_width 1))
	)
)
(symbol
	(rect -568 -488 -408 -392)
	(text "CL_Channel" (rect 5 0 73 14)(font "Arial" (font_size 8)))
	(text "inst4" (rect 8 80 31 92)(font "Arial" ))
	(port
		(pt 0 32)
		(input)
		(text "clock" (rect 0 0 29 14)(font "Arial" (font_size 8)))
		(text "clock" (rect 21 27 50 41)(font "Arial" (font_size 8)))
		(line (pt 0 32)(pt 16 32)(line_width 1))
	)
	(port
		(pt 0 48)
		(input)
		(text "ADC_IN[13..0]" (rect 0 0 79 14)(font "Arial" (font_size 8)))
		(text "ADC_IN[13..0]" (rect 21 43 100 57)(font "Arial" (font_size 8)))
		(line (pt 0 48)(pt 16 48)(line_width 3))
	)
	(port
		(pt 0 64)
		(input)
		(text "TH[13..0]" (rect 0 0 50 14)(font "Arial" (font_size 8)))
		(text "TH[13..0]" (rect 21 59 71 73)(font "Arial" (font_size 8)))
		(line (pt 0 64)(pt 16 64)(line_width 3))
	)
	(port
		(pt 160 32)
		(output)
		(text "OUT" (rect 0 0 24 14)(font "Arial" (font_size 8)))
		(text "OUT" (rect 115 27 139 41)(font "Arial" (font_size 8)))
		(line (pt 160 32)(pt 144 32)(line_width 1))
	)
	(drawing
		(rectangle (rect 16 16 144 80)(line_width 1))
	)
)
(symbol
	(rect -568 -312 -408 -216)
	(text "CL_Channel" (rect 5 0 73 14)(font "Arial" (font_size 8)))
	(text "inst5" (rect 8 80 31 92)(font "Arial" ))
	(port
		(pt 0 32)
		(input)
		(text "clock" (rect 0 0 29 14)(font "Arial" (font_size 8)))
		(text "clock" (rect 21 27 50 41)(font "Arial" (font_size 8)))
		(line (pt 0 32)(pt 16 32)(line_width 1))
	)
	(port
		(pt 0 48)
		(input)
		(text "ADC_IN[13..0]" (rect 0 0 79 14)(font "Arial" (font_size 8)))
		(text "ADC_IN[13..0]" (rect 21 43 100 57)(font "Arial" (font_size 8)))
		(line (pt 0 48)(pt 16 48)(line_width 3))
	)
	(port
		(pt 0 64)
		(input)
		(text "TH[13..0]" (rect 0 0 50 14)(font "Arial" (font_size 8)))
		(text "TH[13..0]" (rect 21 59 71 73)(font "Arial" (font_size 8)))
		(line (pt 0 64)(pt 16 64)(line_width 3))
	)
	(port
		(pt 160 32)
		(output)
		(text "OUT" (rect 0 0 24 14)(font "Arial" (font_size 8)))
		(text "OUT" (rect 115 27 139 41)(font "Arial" (font_size 8)))
		(line (pt 160 32)(pt 144 32)(line_width 1))
	)
	(drawing
		(rectangle (rect 16 16 144 80)(line_width 1))
	)
)
(symbol
	(rect -568 -136 -408 -40)
	(text "CL_Channel" (rect 5 0 73 14)(font "Arial" (font_size 8)))
	(text "inst6" (rect 8 80 31 92)(font "Arial" ))
	(port
		(pt 0 32)
		(input)
		(text "clock" (rect 0 0 29 14)(font "Arial" (font_size 8)))
		(text "clock" (rect 21 27 50 41)(font "Arial" (font_size 8)))
		(line (pt 0 32)(pt 16 32)(line_width 1))
	)
	(port
		(pt 0 48)
		(input)
		(text "ADC_IN[13..0]" (rect 0 0 79 14)(font "Arial" (font_size 8)))
		(text "ADC_IN[13..0]" (rect 21 43 100 57)(font "Arial" (font_size 8)))
		(line (pt 0 48)(pt 16 48)(line_width 3))
	)
	(port
		(pt 0 64)
		(input)
		(text "TH[13..0]" (rect 0 0 50 14)(font "Arial" (font_size 8)))
		(text "TH[13..0]" (rect 21 59 71 73)(font "Arial" (font_size 8)))
		(line (pt 0 64)(pt 16 64)(line_width 3))
	)
	(port
		(pt 160 32)
		(output)
		(text "OUT" (rect 0 0 24 14)(font "Arial" (font_size 8)))
		(text "OUT" (rect 115 27 139 41)(font "Arial" (font_size 8)))
		(line (pt 160 32)(pt 144 32)(line_width 1))
	)
	(drawing
		(rectangle (rect 16 16 144 80)(line_width 1))
	)
)
(symbol
	(rect -568 40 -408 136)
	(text "CL_Channel" (rect 5 0 73 14)(font "Arial" (font_size 8)))
	(text "inst7" (rect 8 80 31 92)(font "Arial" ))
	(port
		(pt 0 32)
		(input)
		(text "clock" (rect 0 0 29 14)(font "Arial" (font_size 8)))
		(text "clock" (rect 21 27 50 41)(font "Arial" (font_size 8)))
		(line (pt 0 32)(pt 16 32)(line_width 1))
	)
	(port
		(pt 0 48)
		(input)
		(text "ADC_IN[13..0]" (rect 0 0 79 14)(font "Arial" (font_size 8)))
		(text "ADC_IN[13..0]" (rect 21 43 100 57)(font "Arial" (font_size 8)))
		(line (pt 0 48)(pt 16 48)(line_width 3))
	)
	(port
		(pt 0 64)
		(input)
		(text "TH[13..0]" (rect 0 0 50 14)(font "Arial" (font_size 8)))
		(text "TH[13..0]" (rect 21 59 71 73)(font "Arial" (font_size 8)))
		(line (pt 0 64)(pt 16 64)(line_width 3))
	)
	(port
		(pt 160 32)
		(output)
		(text "OUT" (rect 0 0 24 14)(font "Arial" (font_size 8)))
		(text "OUT" (rect 115 27 139 41)(font "Arial" (font_size 8)))
		(line (pt 160 32)(pt 144 32)(line_width 1))
	)
	(drawing
		(rectangle (rect 16 16 144 80)(line_width 1))
	)
)
(symbol
	(rect -568 216 -408 312)
	(text "CL_Channel" (rect 5 0 73 14)(font "Arial" (font_size 8)))
	(text "inst8" (rect 8 80 31 92)(font "Arial" ))
	(port
		(pt 0 32)
		(input)
		(text "clock" (rect 0 0 29 14)(font "Arial" (font_size 8)))
		(text "clock" (rect 21 27 50 41)(font "Arial" (font_size 8)))
		(line (pt 0 32)(pt 16 32)(line_width 1))
	)
	(port
		(pt 0 48)
		(input)
		(text "ADC_IN[13..0]" (rect 0 0 79 14)(font "Arial" (font_size 8)))
		(text "ADC_IN[13..0]" (rect 21 43 100 57)(font "Arial" (font_size 8)))
		(line (pt 0 48)(pt 16 48)(line_width 3))
	)
	(port
		(pt 0 64)
		(input)
		(text "TH[13..0]" (rect 0 0 50 14)(font "Arial" (font_size 8)))
		(text "TH[13..0]" (rect 21 59 71 73)(font "Arial" (font_size 8)))
		(line (pt 0 64)(pt 16 64)(line_width 3))
	)
	(port
		(pt 160 32)
		(output)
		(text "OUT" (rect 0 0 24 14)(font "Arial" (font_size 8)))
		(text "OUT" (rect 115 27 139 41)(font "Arial" (font_size 8)))
		(line (pt 160 32)(pt 144 32)(line_width 1))
	)
	(drawing
		(rectangle (rect 16 16 144 80)(line_width 1))
	)
)
(symbol
	(rect -568 392 -408 488)
	(text "CL_Channel" (rect 5 0 73 14)(font "Arial" (font_size 8)))
	(text "inst9" (rect 8 80 31 92)(font "Arial" ))
	(port
		(pt 0 32)
		(input)
		(text "clock" (rect 0 0 29 14)(font "Arial" (font_size 8)))
		(text "clock" (rect 21 27 50 41)(font "Arial" (font_size 8)))
		(line (pt 0 32)(pt 16 32)(line_width 1))
	)
	(port
		(pt 0 48)
		(input)
		(text "ADC_IN[13..0]" (rect 0 0 79 14)(font "Arial" (font_size 8)))
		(text "ADC_IN[13..0]" (rect 21 43 100 57)(font "Arial" (font_size 8)))
		(line (pt 0 48)(pt 16 48)(line_width 3))
	)
	(port
		(pt 0 64)
		(input)
		(text "TH[13..0]" (rect 0 0 50 14)(font "Arial" (font_size 8)))
		(text "TH[13..0]" (rect 21 59 71 73)(font "Arial" (font_size 8)))
		(line (pt 0 64)(pt 16 64)(line_width 3))
	)
	(port
		(pt 160 32)
		(output)
		(text "OUT" (rect 0 0 24 14)(font "Arial" (font_size 8)))
		(text "OUT" (rect 115 27 139 41)(font "Arial" (font_size 8)))
		(line (pt 160 32)(pt 144 32)(line_width 1))
	)
	(drawing
		(rectangle (rect 16 16 144 80)(line_width 1))
	)
)
(symbol
	(rect -568 568 -408 664)
	(text "CL_Channel" (rect 5 0 73 14)(font "Arial" (font_size 8)))
	(text "inst10" (rect 8 80 37 92)(font "Arial" ))
	(port
		(pt 0 32)
		(input)
		(text "clock" (rect 0 0 29 14)(font "Arial" (font_size 8)))
		(text "clock" (rect 21 27 50 41)(font "Arial" (font_size 8)))
		(line (pt 0 32)(pt 16 32)(line_width 1))
	)
	(port
		(pt 0 48)
		(input)
		(text "ADC_IN[13..0]" (rect 0 0 79 14)(font "Arial" (font_size 8)))
		(text "ADC_IN[13..0]" (rect 21 43 100 57)(font "Arial" (font_size 8)))
		(line (pt 0 48)(pt 16 48)(line_width 3))
	)
	(port
		(pt 0 64)
		(input)
		(text "TH[13..0]" (rect 0 0 50 14)(font "Arial" (font_size 8)))
		(text "TH[13..0]" (rect 21 59 71 73)(font "Arial" (font_size 8)))
		(line (pt 0 64)(pt 16 64)(line_width 3))
	)
	(port
		(pt 160 32)
		(output)
		(text "OUT" (rect 0 0 24 14)(font "Arial" (font_size 8)))
		(text "OUT" (rect 115 27 139 41)(font "Arial" (font_size 8)))
		(line (pt 160 32)(pt 144 32)(line_width 1))
	)
	(drawing
		(rectangle (rect 16 16 144 80)(line_width 1))
	)
)
(symbol
	(rect -568 744 -408 840)
	(text "CL_Channel" (rect 5 0 73 14)(font "Arial" (font_size 8)))
	(text "inst11" (rect 8 80 37 92)(font "Arial" ))
	(port
		(pt 0 32)
		(input)
		(text "clock" (rect 0 0 29 14)(font "Arial" (font_size 8)))
		(text "clock" (rect 21 27 50 41)(font "Arial" (font_size 8)))
		(line (pt 0 32)(pt 16 32)(line_width 1))
	)
	(port
		(pt 0 48)
		(input)
		(text "ADC_IN[13..0]" (rect 0 0 79 14)(font "Arial" (font_size 8)))
		(text "ADC_IN[13..0]" (rect 21 43 100 57)(font "Arial" (font_size 8)))
		(line (pt 0 48)(pt 16 48)(line_width 3))
	)
	(port
		(pt 0 64)
		(input)
		(text "TH[13..0]" (rect 0 0 50 14)(font "Arial" (font_size 8)))
		(text "TH[13..0]" (rect 21 59 71 73)(font "Arial" (font_size 8)))
		(line (pt 0 64)(pt 16 64)(line_width 3))
	)
	(port
		(pt 160 32)
		(output)
		(text "OUT" (rect 0 0 24 14)(font "Arial" (font_size 8)))
		(text "OUT" (rect 115 27 139 41)(font "Arial" (font_size 8)))
		(line (pt 160 32)(pt 144 32)(line_width 1))
	)
	(drawing
		(rectangle (rect 16 16 144 80)(line_width 1))
	)
)
(symbol
	(rect -568 920 -408 1016)
	(text "CL_Channel" (rect 5 0 73 14)(font "Arial" (font_size 8)))
	(text "inst12" (rect 8 80 37 92)(font "Arial" ))
	(port
		(pt 0 32)
		(input)
		(text "clock" (rect 0 0 29 14)(font "Arial" (font_size 8)))
		(text "clock" (rect 21 27 50 41)(font "Arial" (font_size 8)))
		(line (pt 0 32)(pt 16 32)(line_width 1))
	)
	(port
		(pt 0 48)
		(input)
		(text "ADC_IN[13..0]" (rect 0 0 79 14)(font "Arial" (font_size 8)))
		(text "ADC_IN[13..0]" (rect 21 43 100 57)(font "Arial" (font_size 8)))
		(line (pt 0 48)(pt 16 48)(line_width 3))
	)
	(port
		(pt 0 64)
		(input)
		(text "TH[13..0]" (rect 0 0 50 14)(font "Arial" (font_size 8)))
		(text "TH[13..0]" (rect 21 59 71 73)(font "Arial" (font_size 8)))
		(line (pt 0 64)(pt 16 64)(line_width 3))
	)
	(port
		(pt 160 32)
		(output)
		(text "OUT" (rect 0 0 24 14)(font "Arial" (font_size 8)))
		(text "OUT" (rect 115 27 139 41)(font "Arial" (font_size 8)))
		(line (pt 160 32)(pt 144 32)(line_width 1))
	)
	(drawing
		(rectangle (rect 16 16 144 80)(line_width 1))
	)
)
(symbol
	(rect -568 1096 -408 1192)
	(text "CL_Channel" (rect 5 0 73 14)(font "Arial" (font_size 8)))
	(text "inst13" (rect 8 80 37 92)(font "Arial" ))
	(port
		(pt 0 32)
		(input)
		(text "clock" (rect 0 0 29 14)(font "Arial" (font_size 8)))
		(text "clock" (rect 21 27 50 41)(font "Arial" (font_size 8)))
		(line (pt 0 32)(pt 16 32)(line_width 1))
	)
	(port
		(pt 0 48)
		(input)
		(text "ADC_IN[13..0]" (rect 0 0 79 14)(font "Arial" (font_size 8)))
		(text "ADC_IN[13..0]" (rect 21 43 100 57)(font "Arial" (font_size 8)))
		(line (pt 0 48)(pt 16 48)(line_width 3))
	)
	(port
		(pt 0 64)
		(input)
		(text "TH[13..0]" (rect 0 0 50 14)(font "Arial" (font_size 8)))
		(text "TH[13..0]" (rect 21 59 71 73)(font "Arial" (font_size 8)))
		(line (pt 0 64)(pt 16 64)(line_width 3))
	)
	(port
		(pt 160 32)
		(output)
		(text "OUT" (rect 0 0 24 14)(font "Arial" (font_size 8)))
		(text "OUT" (rect 115 27 139 41)(font "Arial" (font_size 8)))
		(line (pt 160 32)(pt 144 32)(line_width 1))
	)
	(drawing
		(rectangle (rect 16 16 144 80)(line_width 1))
	)
)
(symbol
	(rect -568 1272 -408 1368)
	(text "CL_Channel" (rect 5 0 73 14)(font "Arial" (font_size 8)))
	(text "inst14" (rect 8 80 37 92)(font "Arial" ))
	(port
		(pt 0 32)
		(input)
		(text "clock" (rect 0 0 29 14)(font "Arial" (font_size 8)))
		(text "clock" (rect 21 27 50 41)(font "Arial" (font_size 8)))
		(line (pt 0 32)(pt 16 32)(line_width 1))
	)
	(port
		(pt 0 48)
		(input)
		(text "ADC_IN[13..0]" (rect 0 0 79 14)(font "Arial" (font_size 8)))
		(text "ADC_IN[13..0]" (rect 21 43 100 57)(font "Arial" (font_size 8)))
		(line (pt 0 48)(pt 16 48)(line_width 3))
	)
	(port
		(pt 0 64)
		(input)
		(text "TH[13..0]" (rect 0 0 50 14)(font "Arial" (font_size 8)))
		(text "TH[13..0]" (rect 21 59 71 73)(font "Arial" (font_size 8)))
		(line (pt 0 64)(pt 16 64)(line_width 3))
	)
	(port
		(pt 160 32)
		(output)
		(text "OUT" (rect 0 0 24 14)(font "Arial" (font_size 8)))
		(text "OUT" (rect 115 27 139 41)(font "Arial" (font_size 8)))
		(line (pt 160 32)(pt 144 32)(line_width 1))
	)
	(drawing
		(rectangle (rect 16 16 144 80)(line_width 1))
	)
)
(symbol
	(rect -568 1448 -408 1544)
	(text "CL_Channel" (rect 5 0 73 14)(font "Arial" (font_size 8)))
	(text "inst15" (rect 8 80 37 92)(font "Arial" ))
	(port
		(pt 0 32)
		(input)
		(text "clock" (rect 0 0 29 14)(font "Arial" (font_size 8)))
		(text "clock" (rect 21 27 50 41)(font "Arial" (font_size 8)))
		(line (pt 0 32)(pt 16 32)(line_width 1))
	)
	(port
		(pt 0 48)
		(input)
		(text "ADC_IN[13..0]" (rect 0 0 79 14)(font "Arial" (font_size 8)))
		(text "ADC_IN[13..0]" (rect 21 43 100 57)(font "Arial" (font_size 8)))
		(line (pt 0 48)(pt 16 48)(line_width 3))
	)
	(port
		(pt 0 64)
		(input)
		(text "TH[13..0]" (rect 0 0 50 14)(font "Arial" (font_size 8)))
		(text "TH[13..0]" (rect 21 59 71 73)(font "Arial" (font_size 8)))
		(line (pt 0 64)(pt 16 64)(line_width 3))
	)
	(port
		(pt 160 32)
		(output)
		(text "OUT" (rect 0 0 24 14)(font "Arial" (font_size 8)))
		(text "OUT" (rect 115 27 139 41)(font "Arial" (font_size 8)))
		(line (pt 160 32)(pt 144 32)(line_width 1))
	)
	(drawing
		(rectangle (rect 16 16 144 80)(line_width 1))
	)
)
(symbol
	(rect -568 1624 -408 1720)
	(text "CL_Channel" (rect 5 0 73 14)(font "Arial" (font_size 8)))
	(text "inst16" (rect 8 80 37 92)(font "Arial" ))
	(port
		(pt 0 32)
		(input)
		(text "clock" (rect 0 0 29 14)(font "Arial" (font_size 8)))
		(text "clock" (rect 21 27 50 41)(font "Arial" (font_size 8)))
		(line (pt 0 32)(pt 16 32)(line_width 1))
	)
	(port
		(pt 0 48)
		(input)
		(text "ADC_IN[13..0]" (rect 0 0 79 14)(font "Arial" (font_size 8)))
		(text "ADC_IN[13..0]" (rect 21 43 100 57)(font "Arial" (font_size 8)))
		(line (pt 0 48)(pt 16 48)(line_width 3))
	)
	(port
		(pt 0 64)
		(input)
		(text "TH[13..0]" (rect 0 0 50 14)(font "Arial" (font_size 8)))
		(text "TH[13..0]" (rect 21 59 71 73)(font "Arial" (font_size 8)))
		(line (pt 0 64)(pt 16 64)(line_width 3))
	)
	(port
		(pt 160 32)
		(output)
		(text "OUT" (rect 0 0 24 14)(font "Arial" (font_size 8)))
		(text "OUT" (rect 115 27 139 41)(font "Arial" (font_size 8)))
		(line (pt 160 32)(pt 144 32)(line_width 1))
	)
	(drawing
		(rectangle (rect 16 16 144 80)(line_width 1))
	)
)
(symbol
	(rect -568 1800 -408 1896)
	(text "CL_Channel" (rect 5 0 73 14)(font "Arial" (font_size 8)))
	(text "inst17" (rect 8 80 37 92)(font "Arial" ))
	(port
		(pt 0 32)
		(input)
		(text "clock" (rect 0 0 29 14)(font "Arial" (font_size 8)))
		(text "clock" (rect 21 27 50 41)(font "Arial" (font_size 8)))
		(line (pt 0 32)(pt 16 32)(line_width 1))
	)
	(port
		(pt 0 48)
		(input)
		(text "ADC_IN[13..0]" (rect 0 0 79 14)(font "Arial" (font_size 8)))
		(text "ADC_IN[13..0]" (rect 21 43 100 57)(font "Arial" (font_size 8)))
		(line (pt 0 48)(pt 16 48)(line_width 3))
	)
	(port
		(pt 0 64)
		(input)
		(text "TH[13..0]" (rect 0 0 50 14)(font "Arial" (font_size 8)))
		(text "TH[13..0]" (rect 21 59 71 73)(font "Arial" (font_size 8)))
		(line (pt 0 64)(pt 16 64)(line_width 3))
	)
	(port
		(pt 160 32)
		(output)
		(text "OUT" (rect 0 0 24 14)(font "Arial" (font_size 8)))
		(text "OUT" (rect 115 27 139 41)(font "Arial" (font_size 8)))
		(line (pt 160 32)(pt 144 32)(line_width 1))
	)
	(drawing
		(rectangle (rect 16 16 144 80)(line_width 1))
	)
)
(symbol
	(rect -112 -712 32 -632)
	(text "CL_DFF_16" (rect 38 1 119 17)(font "Arial" (font_size 10)))
	(text "inst" (rect 8 64 25 76)(font "Arial" ))
	(port
		(pt 0 32)
		(input)
		(text "data[15..0]" (rect 0 0 60 14)(font "Arial" (font_size 8)))
		(text "data[15..0]" (rect 20 26 80 40)(font "Arial" (font_size 8)))
		(line (pt 0 32)(pt 16 32)(line_width 3))
	)
	(port
		(pt 0 48)
		(input)
		(text "clock" (rect 0 0 29 14)(font "Arial" (font_size 8)))
		(text "clock" (rect 26 42 55 56)(font "Arial" (font_size 8)))
		(line (pt 0 48)(pt 16 48)(line_width 1))
	)
	(port
		(pt 144 48)
		(output)
		(text "q[15..0]" (rect 0 0 42 14)(font "Arial" (font_size 8)))
		(text "q[15..0]" (rect 89 42 131 56)(font "Arial" (font_size 8)))
		(line (pt 144 48)(pt 128 48)(line_width 3))
	)
	(drawing
		(text "DFF" (rect 109 17 131 29)(font "Arial" ))
		(line (pt 16 16)(pt 128 16)(line_width 1))
		(line (pt 128 16)(pt 128 64)(line_width 1))
		(line (pt 128 64)(pt 16 64)(line_width 1))
		(line (pt 16 64)(pt 16 16)(line_width 1))
		(line (pt 16 42)(pt 22 48)(line_width 1))
		(line (pt 22 48)(pt 16 54)(line_width 1))
	)
)
(connector
	(text "adc[13..0]" (rect -686 -800 -611 -783)(font "Arial" (font_size 11)))
	(pt -600 -792)
	(pt -568 -792)
	(bus)
)
(connector
	(text "vme_control[13..0]" (rect -736 -784 -595 -767)(font "Arial" (font_size 11)))
	(pt -568 -776)
	(pt -600 -776)
	(bus)
)
(connector
	(text "clock" (rect -680 -824 -640 -807)(font "Arial" (font_size 11)))
	(pt -602 -808)
	(pt -568 -808)
)
(connector
	(text "clock" (rect -680 -648 -640 -631)(font "Arial" (font_size 11)))
	(pt -602 -632)
	(pt -568 -632)
)
(connector
	(text "clock" (rect -680 -472 -640 -455)(font "Arial" (font_size 11)))
	(pt -602 -456)
	(pt -568 -456)
)
(connector
	(text "clock" (rect -680 -296 -640 -279)(font "Arial" (font_size 11)))
	(pt -602 -280)
	(pt -568 -280)
)
(connector
	(text "clock" (rect -680 -120 -640 -103)(font "Arial" (font_size 11)))
	(pt -602 -104)
	(pt -568 -104)
)
(connector
	(text "clock" (rect -680 56 -640 73)(font "Arial" (font_size 11)))
	(pt -602 72)
	(pt -568 72)
)
(connector
	(text "clock" (rect -680 232 -640 249)(font "Arial" (font_size 11)))
	(pt -602 248)
	(pt -568 248)
)
(connector
	(text "clock" (rect -680 408 -640 425)(font "Arial" (font_size 11)))
	(pt -602 424)
	(pt -568 424)
)
(connector
	(text "clock" (rect -680 584 -640 601)(font "Arial" (font_size 11)))
	(pt -602 600)
	(pt -568 600)
)
(connector
	(text "clock" (rect -680 760 -640 777)(font "Arial" (font_size 11)))
	(pt -602 776)
	(pt -568 776)
)
(connector
	(text "clock" (rect -680 936 -640 953)(font "Arial" (font_size 11)))
	(pt -602 952)
	(pt -568 952)
)
(connector
	(text "clock" (rect -680 1112 -640 1129)(font "Arial" (font_size 11)))
	(pt -602 1128)
	(pt -568 1128)
)
(connector
	(text "clock" (rect -680 1288 -640 1305)(font "Arial" (font_size 11)))
	(pt -602 1304)
	(pt -568 1304)
)
(connector
	(text "clock" (rect -680 1464 -640 1481)(font "Arial" (font_size 11)))
	(pt -602 1480)
	(pt -568 1480)
)
(connector
	(text "clock" (rect -680 1640 -640 1657)(font "Arial" (font_size 11)))
	(pt -602 1656)
	(pt -568 1656)
)
(connector
	(text "clock" (rect -680 1816 -640 1833)(font "Arial" (font_size 11)))
	(pt -602 1832)
	(pt -568 1832)
)
(connector
	(text "adc[27..14]" (rect -686 -624 -602 -607)(font "Arial" (font_size 11)))
	(pt -600 -616)
	(pt -568 -616)
	(bus)
)
(connector
	(text "adc[41..28]" (rect -686 -448 -602 -431)(font "Arial" (font_size 11)))
	(pt -600 -440)
	(pt -568 -440)
	(bus)
)
(connector
	(text "adc[55..42]" (rect -686 -272 -602 -255)(font "Arial" (font_size 11)))
	(pt -600 -264)
	(pt -568 -264)
	(bus)
)
(connector
	(text "adc[69..56]" (rect -686 -96 -602 -79)(font "Arial" (font_size 11)))
	(pt -600 -88)
	(pt -568 -88)
	(bus)
)
(connector
	(text "adc[83..70]" (rect -686 80 -602 97)(font "Arial" (font_size 11)))
	(pt -600 88)
	(pt -568 88)
	(bus)
)
(connector
	(text "adc[97..84]" (rect -686 256 -602 273)(font "Arial" (font_size 11)))
	(pt -600 264)
	(pt -568 264)
	(bus)
)
(connector
	(text "adc[111..98]" (rect -686 424 -592 441)(font "Arial" (font_size 11)))
	(pt -600 440)
	(pt -568 440)
	(bus)
)
(connector
	(text "adc[125..112]" (rect -718 608 -615 625)(font "Arial" (font_size 11)))
	(pt -600 616)
	(pt -568 616)
	(bus)
)
(connector
	(text "adc[139..126]" (rect -702 792 -599 809)(font "Arial" (font_size 11)))
	(pt -600 792)
	(pt -568 792)
	(bus)
)
(connector
	(text "adc[153..140]" (rect -718 960 -615 977)(font "Arial" (font_size 11)))
	(pt -600 968)
	(pt -568 968)
	(bus)
)
(connector
	(text "adc[167..154]" (rect -718 1136 -615 1153)(font "Arial" (font_size 11)))
	(pt -600 1144)
	(pt -568 1144)
	(bus)
)
(connector
	(text "adc[181..168]" (rect -726 1312 -623 1329)(font "Arial" (font_size 11)))
	(pt -600 1320)
	(pt -568 1320)
	(bus)
)
(connector
	(text "adc[195..182]" (rect -734 1488 -631 1505)(font "Arial" (font_size 11)))
	(pt -600 1496)
	(pt -568 1496)
	(bus)
)
(connector
	(text "adc[209..196]" (rect -718 1664 -615 1681)(font "Arial" (font_size 11)))
	(pt -600 1672)
	(pt -568 1672)
	(bus)
)
(connector
	(text "adc[223..210]" (rect -726 1840 -623 1857)(font "Arial" (font_size 11)))
	(pt -600 1848)
	(pt -568 1848)
	(bus)
)
(connector
	(text "vme_control[29..16]" (rect -736 -608 -585 -591)(font "Arial" (font_size 11)))
	(pt -568 -600)
	(pt -600 -600)
	(bus)
)
(connector
	(text "vme_control[45..32]" (rect -736 -432 -585 -415)(font "Arial" (font_size 11)))
	(pt -568 -424)
	(pt -600 -424)
	(bus)
)
(connector
	(text "vme_control[61..48]" (rect -736 -256 -585 -239)(font "Arial" (font_size 11)))
	(pt -568 -248)
	(pt -600 -248)
	(bus)
)
(connector
	(text "vme_control[77..64]" (rect -736 -80 -585 -63)(font "Arial" (font_size 11)))
	(pt -568 -72)
	(pt -600 -72)
	(bus)
)
(connector
	(text "vme_control[93..80]" (rect -736 96 -585 113)(font "Arial" (font_size 11)))
	(pt -568 104)
	(pt -600 104)
	(bus)
)
(connector
	(text "vme_control[109..96]" (rect -736 272 -576 289)(font "Arial" (font_size 11)))
	(pt -568 280)
	(pt -600 280)
	(bus)
)
(connector
	(text "vme_control[125..112]" (rect -760 448 -591 465)(font "Arial" (font_size 11)))
	(pt -568 456)
	(pt -600 456)
	(bus)
)
(connector
	(text "vme_control[141..128]" (rect -768 624 -599 641)(font "Arial" (font_size 11)))
	(pt -568 632)
	(pt -600 632)
	(bus)
)
(connector
	(text "vme_control[157..144]" (rect -752 808 -583 825)(font "Arial" (font_size 11)))
	(pt -568 808)
	(pt -600 808)
	(bus)
)
(connector
	(text "vme_control[173..160]" (rect -760 976 -591 993)(font "Arial" (font_size 11)))
	(pt -568 984)
	(pt -600 984)
	(bus)
)
(connector
	(text "vme_control[189..176]" (rect -760 1152 -591 1169)(font "Arial" (font_size 11)))
	(pt -568 1160)
	(pt -600 1160)
	(bus)
)
(connector
	(text "vme_control[205..192]" (rect -760 1328 -591 1345)(font "Arial" (font_size 11)))
	(pt -568 1336)
	(pt -600 1336)
	(bus)
)
(connector
	(text "vme_control[221..208]" (rect -760 1504 -591 1521)(font "Arial" (font_size 11)))
	(pt -568 1512)
	(pt -600 1512)
	(bus)
)
(connector
	(text "vme_control[237..224]" (rect -760 1680 -591 1697)(font "Arial" (font_size 11)))
	(pt -568 1688)
	(pt -600 1688)
	(bus)
)
(connector
	(text "vme_control[253..240]" (rect -752 1856 -583 1873)(font "Arial" (font_size 11)))
	(pt -568 1864)
	(pt -600 1864)
	(bus)
)
(connector
	(text "adc[223..0]" (rect -894 -808 -839 -796)(font "Arial" ))
	(pt -912 -784)
	(pt -856 -784)
	(bus)
)
(connector
	(text "vme_control[255..0]" (rect -854 -760 -755 -748)(font "Arial" ))
	(pt -880 -736)
	(pt -824 -736)
	(bus)
)
(connector
	(text "CLOUT[0]" (rect -334 -816 -246 -797)(font "Arial" (font_size 12)(bold)))
	(pt -408 -808)
	(pt -352 -808)
)
(connector
	(text "CLOUT[1]" (rect -334 -640 -246 -621)(font "Arial" (font_size 12)(bold)))
	(pt -408 -632)
	(pt -352 -632)
)
(connector
	(text "CLOUT[2]" (rect -334 -464 -246 -445)(font "Arial" (font_size 12)(bold)))
	(pt -408 -456)
	(pt -352 -456)
)
(connector
	(text "CLOUT[3]" (rect -334 -288 -246 -269)(font "Arial" (font_size 12)(bold)))
	(pt -408 -280)
	(pt -352 -280)
)
(connector
	(text "CLOUT[4]" (rect -334 -112 -246 -93)(font "Arial" (font_size 12)(bold)))
	(pt -408 -104)
	(pt -352 -104)
)
(connector
	(text "CLOUT[5]" (rect -334 64 -246 83)(font "Arial" (font_size 12)(bold)))
	(pt -408 72)
	(pt -352 72)
)
(connector
	(text "CLOUT[6]" (rect -334 240 -246 259)(font "Arial" (font_size 12)(bold)))
	(pt -408 248)
	(pt -352 248)
)
(connector
	(text "CLOUT[7]" (rect -334 416 -246 435)(font "Arial" (font_size 12)(bold)))
	(pt -408 424)
	(pt -352 424)
)
(connector
	(text "CLOUT[8]" (rect -334 592 -246 611)(font "Arial" (font_size 12)(bold)))
	(pt -408 600)
	(pt -352 600)
)
(connector
	(text "CLOUT[9]" (rect -334 768 -246 787)(font "Arial" (font_size 12)(bold)))
	(pt -408 776)
	(pt -352 776)
)
(connector
	(text "CLOUT[10]" (rect -334 944 -235 963)(font "Arial" (font_size 12)(bold)))
	(pt -408 952)
	(pt -352 952)
)
(connector
	(text "CLOUT[11]" (rect -334 1120 -235 1139)(font "Arial" (font_size 12)(bold)))
	(pt -408 1128)
	(pt -352 1128)
)
(connector
	(text "CLOUT[12]" (rect -334 1296 -235 1315)(font "Arial" (font_size 12)(bold)))
	(pt -408 1304)
	(pt -352 1304)
)
(connector
	(text "CLOUT[13]" (rect -334 1472 -235 1491)(font "Arial" (font_size 12)(bold)))
	(pt -408 1480)
	(pt -352 1480)
)
(connector
	(text "CLOUT[14]" (rect -334 1648 -235 1667)(font "Arial" (font_size 12)(bold)))
	(pt -408 1656)
	(pt -352 1656)
)
(connector
	(text "CLOUT[15]" (rect -334 1824 -235 1843)(font "Arial" (font_size 12)(bold)))
	(pt -408 1832)
	(pt -352 1832)
)
(connector
	(text "clock" (rect -902 -640 -877 -628)(font "Arial" ))
	(pt -904 -624)
	(pt -864 -624)
)
(connector
	(text "clock" (rect -224 -680 -184 -663)(font "Arial" (font_size 11)))
	(pt -146 -664)
	(pt -112 -664)
)
(connector
	(text "CLOUT[15..0]" (rect -190 -696 -122 -684)(font "Arial" ))
	(pt -192 -680)
	(pt -112 -680)
	(bus)
)
(connector
	(pt 32 -664)
	(pt 80 -664)
	(bus)
)
