/*
WARNING: Do NOT edit the input and output ports in this file in a text
editor if you plan to continue editing the block that represents it in
the Block Editor! File corruption is VERY likely to occur.
*/
/*
Copyright (C) 1991-2010 Altera Corporation
Your use of Altera Corporation's design tools, logic functions 
and other software and tools, and its AMPP partner logic 
functions, and any output files from any of the foregoing 
(including device programming or simulation files), and any 
associated documentation or information are expressly subject 
to the terms and conditions of the Altera Program License 
Subscription Agreement, Altera MegaCore Function License 
Agreement, or other applicable license agreement, including, 
without limitation, that your use is for the sole purpose of 
programming logic devices manufactured by Altera and sold by 
Altera or its authorized distributors.  Please refer to the 
applicable agreement for further details.
*/
//#pragma file_not_in_maxplusii_format
(header "graphic" (version "1.3"))
(pin
	(input)
	(rect 0 2248 168 2264)
	(text "INPUT" (rect 133 0 161 10)(font "Arial" (font_size 6)))
	(text "input" (rect 5 0 28 12)(font "Arial" ))
	(pt 168 8)
	(drawing
		(line (pt 92 12)(pt 117 12)(line_width 1))
		(line (pt 92 4)(pt 117 4)(line_width 1))
		(line (pt 121 8)(pt 168 8)(line_width 1))
		(line (pt 92 12)(pt 92 4)(line_width 1))
		(line (pt 117 4)(pt 121 8)(line_width 1))
		(line (pt 117 12)(pt 121 8)(line_width 1))
	)
	(text "VCC" (rect 136 7 156 17)(font "Arial" (font_size 6)))
)
(pin
	(input)
	(rect 16 2552 184 2568)
	(text "INPUT" (rect 133 0 161 10)(font "Arial" (font_size 6)))
	(text "align_active" (rect 5 0 64 12)(font "Arial" ))
	(pt 168 8)
	(drawing
		(line (pt 92 12)(pt 117 12)(line_width 1))
		(line (pt 92 4)(pt 117 4)(line_width 1))
		(line (pt 121 8)(pt 168 8)(line_width 1))
		(line (pt 92 12)(pt 92 4)(line_width 1))
		(line (pt 117 4)(pt 121 8)(line_width 1))
		(line (pt 117 12)(pt 121 8)(line_width 1))
	)
	(text "VCC" (rect 136 7 156 17)(font "Arial" (font_size 6)))
)
(pin
	(input)
	(rect 0 2264 168 2280)
	(text "INPUT" (rect 133 0 161 10)(font "Arial" (font_size 6)))
	(text "rx_inclock" (rect 5 0 54 12)(font "Arial" ))
	(pt 168 8)
	(drawing
		(line (pt 92 12)(pt 117 12)(line_width 1))
		(line (pt 92 4)(pt 117 4)(line_width 1))
		(line (pt 121 8)(pt 168 8)(line_width 1))
		(line (pt 92 12)(pt 92 4)(line_width 1))
		(line (pt 117 4)(pt 121 8)(line_width 1))
		(line (pt 117 12)(pt 121 8)(line_width 1))
	)
	(text "VCC" (rect 136 7 156 17)(font "Arial" (font_size 6)))
)
(pin
	(input)
	(rect 16 2664 184 2680)
	(text "INPUT" (rect 133 0 161 10)(font "Arial" (font_size 6)))
	(text "slow_clock" (rect 5 0 58 12)(font "Arial" ))
	(pt 168 8)
	(drawing
		(line (pt 92 12)(pt 117 12)(line_width 1))
		(line (pt 92 4)(pt 117 4)(line_width 1))
		(line (pt 121 8)(pt 168 8)(line_width 1))
		(line (pt 92 12)(pt 92 4)(line_width 1))
		(line (pt 117 4)(pt 121 8)(line_width 1))
		(line (pt 117 12)(pt 121 8)(line_width 1))
	)
	(text "VCC" (rect 136 7 156 17)(font "Arial" (font_size 6)))
)
(pin
	(input)
	(rect 24 2488 192 2504)
	(text "INPUT" (rect 133 0 161 10)(font "Arial" (font_size 6)))
	(text "AlignWord[7..0]" (rect 5 0 80 12)(font "Arial" ))
	(pt 168 8)
	(drawing
		(line (pt 92 12)(pt 117 12)(line_width 1))
		(line (pt 92 4)(pt 117 4)(line_width 1))
		(line (pt 121 8)(pt 168 8)(line_width 1))
		(line (pt 92 12)(pt 92 4)(line_width 1))
		(line (pt 117 4)(pt 121 8)(line_width 1))
		(line (pt 117 12)(pt 121 8)(line_width 1))
	)
	(text "VCC" (rect 136 7 156 17)(font "Arial" (font_size 6)))
)
(pin
	(output)
	(rect 896 2264 1072 2280)
	(text "OUTPUT" (rect 1 0 39 10)(font "Arial" (font_size 6)))
	(text "outclock" (rect 90 0 131 12)(font "Arial" ))
	(pt 0 8)
	(drawing
		(line (pt 0 8)(pt 52 8)(line_width 1))
		(line (pt 52 4)(pt 78 4)(line_width 1))
		(line (pt 52 12)(pt 78 12)(line_width 1))
		(line (pt 52 12)(pt 52 4)(line_width 1))
		(line (pt 78 4)(pt 82 8)(line_width 1))
		(line (pt 82 8)(pt 78 12)(line_width 1))
		(line (pt 78 12)(pt 82 8)(line_width 1))
	)
)
(pin
	(output)
	(rect 1080 2360 1256 2376)
	(text "OUTPUT" (rect 1 0 39 10)(font "Arial" (font_size 6)))
	(text "t1" (rect 90 0 99 12)(font "Arial" ))
	(pt 0 8)
	(drawing
		(line (pt 0 8)(pt 52 8)(line_width 1))
		(line (pt 52 4)(pt 78 4)(line_width 1))
		(line (pt 52 12)(pt 78 12)(line_width 1))
		(line (pt 52 12)(pt 52 4)(line_width 1))
		(line (pt 78 4)(pt 82 8)(line_width 1))
		(line (pt 82 8)(pt 78 12)(line_width 1))
		(line (pt 78 12)(pt 82 8)(line_width 1))
	)
)
(pin
	(output)
	(rect 1144 2408 1320 2424)
	(text "OUTPUT" (rect 1 0 39 10)(font "Arial" (font_size 6)))
	(text "t2" (rect 90 0 99 12)(font "Arial" ))
	(pt 0 8)
	(drawing
		(line (pt 0 8)(pt 52 8)(line_width 1))
		(line (pt 52 4)(pt 78 4)(line_width 1))
		(line (pt 52 12)(pt 78 12)(line_width 1))
		(line (pt 52 12)(pt 52 4)(line_width 1))
		(line (pt 78 4)(pt 82 8)(line_width 1))
		(line (pt 82 8)(pt 78 12)(line_width 1))
		(line (pt 78 12)(pt 82 8)(line_width 1))
	)
)
(pin
	(output)
	(rect 1344 2608 1520 2624)
	(text "OUTPUT" (rect 1 0 39 10)(font "Arial" (font_size 6)))
	(text "t3" (rect 90 0 99 12)(font "Arial" ))
	(pt 0 8)
	(drawing
		(line (pt 0 8)(pt 52 8)(line_width 1))
		(line (pt 52 4)(pt 78 4)(line_width 1))
		(line (pt 52 12)(pt 78 12)(line_width 1))
		(line (pt 52 12)(pt 52 4)(line_width 1))
		(line (pt 78 4)(pt 82 8)(line_width 1))
		(line (pt 82 8)(pt 78 12)(line_width 1))
		(line (pt 78 12)(pt 82 8)(line_width 1))
	)
)
(pin
	(output)
	(rect 896 2248 1072 2264)
	(text "OUTPUT" (rect 1 0 39 10)(font "Arial" (font_size 6)))
	(text "out[7..0]" (rect 90 0 131 12)(font "Arial" ))
	(pt 0 8)
	(drawing
		(line (pt 0 8)(pt 52 8)(line_width 1))
		(line (pt 52 4)(pt 78 4)(line_width 1))
		(line (pt 52 12)(pt 78 12)(line_width 1))
		(line (pt 52 12)(pt 52 4)(line_width 1))
		(line (pt 78 4)(pt 82 8)(line_width 1))
		(line (pt 82 8)(pt 78 12)(line_width 1))
		(line (pt 78 12)(pt 82 8)(line_width 1))
	)
)
(symbol
	(rect 792 2528 936 2608)
	(text "CL_dff1" (rect 51 1 101 17)(font "Arial" (font_size 10)))
	(text "inst" (rect 8 64 25 76)(font "Arial" ))
	(port
		(pt 0 32)
		(input)
		(text "data" (rect 0 0 24 14)(font "Arial" (font_size 8)))
		(text "data" (rect 20 26 44 40)(font "Arial" (font_size 8)))
		(line (pt 0 32)(pt 16 32)(line_width 1))
	)
	(port
		(pt 0 48)
		(input)
		(text "clock" (rect 0 0 29 14)(font "Arial" (font_size 8)))
		(text "clock" (rect 26 42 55 56)(font "Arial" (font_size 8)))
		(line (pt 0 48)(pt 16 48)(line_width 1))
	)
	(port
		(pt 144 48)
		(output)
		(text "q" (rect 0 0 7 14)(font "Arial" (font_size 8)))
		(text "q" (rect 119 42 126 56)(font "Arial" (font_size 8)))
		(line (pt 144 48)(pt 128 48)(line_width 1))
	)
	(drawing
		(text "DFF" (rect 109 17 131 29)(font "Arial" ))
		(line (pt 16 16)(pt 128 16)(line_width 1))
		(line (pt 128 16)(pt 128 64)(line_width 1))
		(line (pt 128 64)(pt 16 64)(line_width 1))
		(line (pt 16 64)(pt 16 16)(line_width 1))
		(line (pt 16 42)(pt 22 48)(line_width 1))
		(line (pt 22 48)(pt 16 54)(line_width 1))
	)
)
(symbol
	(rect 1176 2456 1240 2536)
	(text "AND4" (rect 1 0 25 10)(font "Arial" (font_size 6)))
	(text "inst3" (rect 3 69 26 81)(font "Arial" ))
	(port
		(pt 0 16)
		(input)
		(text "IN1" (rect 2 7 19 19)(font "Courier New" (bold))(invisible))
		(text "IN1" (rect 2 7 19 19)(font "Courier New" (bold))(invisible))
		(line (pt 0 16)(pt 18 16)(line_width 1))
	)
	(port
		(pt 0 32)
		(input)
		(text "IN2" (rect 2 23 19 35)(font "Courier New" (bold))(invisible))
		(text "IN2" (rect 2 23 19 35)(font "Courier New" (bold))(invisible))
		(line (pt 0 32)(pt 18 32)(line_width 1))
	)
	(port
		(pt 0 48)
		(input)
		(text "IN3" (rect 2 39 19 51)(font "Courier New" (bold))(invisible))
		(text "IN3" (rect 2 39 19 51)(font "Courier New" (bold))(invisible))
		(line (pt 0 48)(pt 18 48)(line_width 1))
	)
	(port
		(pt 0 64)
		(input)
		(text "IN4" (rect 2 55 19 67)(font "Courier New" (bold))(invisible))
		(text "IN4" (rect 2 55 19 67)(font "Courier New" (bold))(invisible))
		(line (pt 0 64)(pt 18 64)(line_width 1))
	)
	(port
		(pt 64 40)
		(output)
		(text "OUT" (rect 48 31 65 43)(font "Courier New" (bold))(invisible))
		(text "OUT" (rect 48 31 65 43)(font "Courier New" (bold))(invisible))
		(line (pt 46 40)(pt 64 40)(line_width 1))
	)
	(drawing
		(line (pt 18 28)(pt 34 28)(line_width 1))
		(line (pt 18 52)(pt 18 28)(line_width 1))
		(line (pt 18 67)(pt 18 13)(line_width 1))
		(line (pt 34 53)(pt 18 53)(line_width 1))
		(arc (pt 34 52)(pt 34 28)(rect 22 28 47 53)(line_width 1))
	)
)
(symbol
	(rect 992 2384 1024 2400)
	(text "VCC" (rect 7 0 27 10)(font "Arial" (font_size 6)))
	(text "inst1" (rect 3 5 26 17)(font "Arial" )(invisible))
	(port
		(pt 16 16)
		(output)
		(text "1" (rect 19 7 24 19)(font "Courier New" (bold))(invisible))
		(text "1" (rect 19 7 24 19)(font "Courier New" (bold))(invisible))
		(line (pt 16 16)(pt 16 8)(line_width 1))
	)
	(drawing
		(line (pt 8 8)(pt 24 8)(line_width 1))
	)
)
(symbol
	(rect 640 2432 768 2528)
	(text "CL_Compare_8" (rect 20 1 125 17)(font "Arial" (font_size 10)))
	(text "inst2" (rect 8 80 31 92)(font "Arial" ))
	(port
		(pt 0 48)
		(input)
		(text "dataa[7..0]" (rect 0 0 60 14)(font "Arial" (font_size 8)))
		(text "dataa[7..0]" (rect 20 42 80 56)(font "Arial" (font_size 8)))
		(line (pt 0 48)(pt 16 48)(line_width 3))
	)
	(port
		(pt 0 64)
		(input)
		(text "datab[7..0]" (rect 0 0 60 14)(font "Arial" (font_size 8)))
		(text "datab[7..0]" (rect 20 58 80 72)(font "Arial" (font_size 8)))
		(line (pt 0 64)(pt 16 64)(line_width 3))
	)
	(port
		(pt 128 56)
		(output)
		(text "aneb" (rect 0 0 28 14)(font "Arial" (font_size 8)))
		(text "aneb" (rect 85 50 113 64)(font "Arial" (font_size 8)))
		(line (pt 128 56)(pt 112 56)(line_width 1))
	)
	(drawing
		(text "compare" (rect 76 17 118 29)(font "Arial" ))
		(line (pt 16 16)(pt 112 16)(line_width 1))
		(line (pt 112 16)(pt 112 80)(line_width 1))
		(line (pt 112 80)(pt 16 80)(line_width 1))
		(line (pt 16 80)(pt 16 16)(line_width 1))
	)
)
(symbol
	(rect 312 2224 600 2384)
	(text "CL_lvds_rx1" (rect 109 1 191 17)(font "Arial" (font_size 10)))
	(text "inst55" (rect 8 144 37 156)(font "Arial" ))
	(port
		(pt 0 32)
		(input)
		(text "rx_in[0]" (rect 0 0 42 14)(font "Arial" (font_size 8)))
		(text "rx_in[0]" (rect 4 19 46 33)(font "Arial" (font_size 8)))
		(line (pt 0 32)(pt 100 32)(line_width 1))
	)
	(port
		(pt 0 48)
		(input)
		(text "rx_inclock" (rect 0 0 57 14)(font "Arial" (font_size 8)))
		(text "rx_inclock" (rect 4 35 61 49)(font "Arial" (font_size 8)))
		(line (pt 0 48)(pt 100 48)(line_width 1))
	)
	(port
		(pt 0 64)
		(input)
		(text "rx_data_align" (rect 0 0 76 14)(font "Arial" (font_size 8)))
		(text "rx_data_align" (rect 4 51 80 65)(font "Arial" (font_size 8)))
		(line (pt 0 64)(pt 100 64)(line_width 1))
	)
	(port
		(pt 288 32)
		(output)
		(text "rx_out[7..0]" (rect 0 0 64 14)(font "Arial" (font_size 8)))
		(text "rx_out[7..0]" (rect 230 19 294 33)(font "Arial" (font_size 8)))
		(line (pt 288 32)(pt 216 32)(line_width 3))
	)
	(port
		(pt 288 48)
		(output)
		(text "rx_outclock" (rect 0 0 66 14)(font "Arial" (font_size 8)))
		(text "rx_outclock" (rect 229 35 295 49)(font "Arial" (font_size 8)))
		(line (pt 288 48)(pt 192 48)(line_width 1))
	)
	(drawing
		(text "LVDS Receiver" (rect 114 38 190 50)(font "Arial" ))
		(text "single channel, x8" (rect 109 54 197 66)(font "Arial" ))
		(text "32.000 ns" (rect 126 70 174 82)(font "Arial" ))
		(text "I/P data rate=250.00" (rect 104 86 204 98)(font "Arial" ))
		(text "Outclk Freq = 31.25" (rect 105 102 202 114)(font "Arial" ))
		(text "Stratix II" (rect 244 146 286 158)(font "Arial" ))
		(line (pt 100 24)(pt 192 24)(line_width 1))
		(line (pt 192 24)(pt 192 128)(line_width 1))
		(line (pt 192 128)(pt 100 128)(line_width 1))
		(line (pt 100 128)(pt 100 24)(line_width 1))
		(line (pt 100 44)(pt 105 49)(line_width 1))
		(line (pt 100 52)(pt 105 47)(line_width 1))
		(line (pt 208 27)(pt 216 27)(line_width 1))
		(line (pt 216 27)(pt 216 39)(line_width 1))
		(line (pt 216 39)(pt 208 39)(line_width 1))
		(line (pt 208 39)(pt 208 27)(line_width 1))
		(line (pt 208 34)(pt 210 36)(line_width 1))
		(line (pt 210 36)(pt 208 38)(line_width 1))
		(line (pt 200 36)(pt 208 36)(line_width 1))
		(line (pt 192 32)(pt 208 32)(line_width 3))
		(line (pt 200 48)(pt 200 36)(line_width 1))
	)
)
(connector
	(pt 312 2288)
	(pt 296 2288)
)
(connector
	(pt 168 2256)
	(pt 312 2256)
)
(connector
	(pt 296 2288)
	(pt 296 2616)
)
(connector
	(pt 640 2496)
	(pt 192 2496)
	(bus)
)
(connector
	(pt 624 2256)
	(pt 624 2480)
	(bus)
)
(connector
	(pt 640 2480)
	(pt 624 2480)
	(bus)
)
(connector
	(pt 600 2256)
	(pt 624 2256)
	(bus)
)
(connector
	(pt 624 2256)
	(pt 896 2256)
	(bus)
)
(connector
	(pt 184 2560)
	(pt 792 2560)
)
(connector
	(pt 600 2272)
	(pt 896 2272)
)
(connector
	(pt 936 2576)
	(pt 1008 2576)
)
(connector
	(pt 1008 2576)
	(pt 1008 2504)
)
(connector
	(pt 1176 2472)
	(pt 1008 2472)
)
(connector
	(pt 1176 2520)
	(pt 1128 2520)
)
(connector
	(pt 1304 2496)
	(pt 1304 2616)
)
(connector
	(pt 1240 2496)
	(pt 1304 2496)
)
(connector
	(pt 168 2272)
	(pt 312 2272)
)
(connector
	(pt 752 2576)
	(pt 752 2672)
)
(connector
	(pt 752 2576)
	(pt 792 2576)
)
(connector
	(pt 184 2672)
	(pt 752 2672)
)
(connector
	(pt 752 2672)
	(pt 1128 2672)
)
(connector
	(pt 1048 2368)
	(pt 1048 2488)
)
(connector
	(pt 1080 2368)
	(pt 1048 2368)
)
(connector
	(pt 1176 2488)
	(pt 1048 2488)
)
(connector
	(pt 1048 2488)
	(pt 768 2488)
)
(connector
	(pt 296 2616)
	(pt 1304 2616)
)
(connector
	(pt 1304 2616)
	(pt 1344 2616)
)
(connector
	(pt 1008 2504)
	(pt 1176 2504)
)
(connector
	(pt 1144 2416)
	(pt 1128 2416)
)
(connector
	(pt 1128 2416)
	(pt 1128 2520)
)
(connector
	(pt 1128 2520)
	(pt 1128 2672)
)
(connector
	(pt 1008 2472)
	(pt 1008 2400)
)
(junction (pt 624 2256))
(junction (pt 752 2672))
(junction (pt 1048 2488))
(junction (pt 1304 2616))
(junction (pt 1128 2520))
