/*
WARNING: Do NOT edit the input and output ports in this file in a text
editor if you plan to continue editing the block that represents it in
the Block Editor! File corruption is VERY likely to occur.
*/
/*
Copyright (C) 1991-2010 Altera Corporation
Your use of Altera Corporation's design tools, logic functions 
and other software and tools, and its AMPP partner logic 
functions, and any output files from any of the foregoing 
(including device programming or simulation files), and any 
associated documentation or information are expressly subject 
to the terms and conditions of the Altera Program License 
Subscription Agreement, Altera MegaCore Function License 
Agreement, or other applicable license agreement, including, 
without limitation, that your use is for the sole purpose of 
programming logic devices manufactured by Altera and sold by 
Altera or its authorized distributors.  Please refer to the 
applicable agreement for further details.
*/
//#pragma file_not_in_maxplusii_format
(header "graphic" (version "1.3"))
(pin
	(input)
	(rect 32 104 200 120)
	(text "INPUT" (rect 133 0 161 10)(font "Arial" (font_size 6)))
	(text "in[13..0]" (rect 5 0 45 12)(font "Arial" ))
	(pt 168 8)
	(drawing
		(line (pt 92 12)(pt 117 12)(line_width 1))
		(line (pt 92 4)(pt 117 4)(line_width 1))
		(line (pt 121 8)(pt 168 8)(line_width 1))
		(line (pt 92 12)(pt 92 4)(line_width 1))
		(line (pt 117 4)(pt 121 8)(line_width 1))
		(line (pt 117 12)(pt 121 8)(line_width 1))
	)
	(text "VCC" (rect 136 7 156 17)(font "Arial" (font_size 6)))
)
(pin
	(input)
	(rect 32 152 200 168)
	(text "INPUT" (rect 133 0 161 10)(font "Arial" (font_size 6)))
	(text "ck" (rect 5 0 16 12)(font "Arial" ))
	(pt 168 8)
	(drawing
		(line (pt 92 12)(pt 117 12)(line_width 1))
		(line (pt 92 4)(pt 117 4)(line_width 1))
		(line (pt 121 8)(pt 168 8)(line_width 1))
		(line (pt 92 12)(pt 92 4)(line_width 1))
		(line (pt 117 4)(pt 121 8)(line_width 1))
		(line (pt 117 12)(pt 121 8)(line_width 1))
	)
	(text "VCC" (rect 136 7 156 17)(font "Arial" (font_size 6)))
)
(pin
	(output)
	(rect 3464 736 3640 752)
	(text "OUTPUT" (rect 1 0 39 10)(font "Arial" (font_size 6)))
	(text "out[13..0]" (rect 90 0 137 12)(font "Arial" ))
	(pt 0 8)
	(drawing
		(line (pt 0 8)(pt 52 8)(line_width 1))
		(line (pt 52 4)(pt 78 4)(line_width 1))
		(line (pt 52 12)(pt 78 12)(line_width 1))
		(line (pt 52 12)(pt 52 4)(line_width 1))
		(line (pt 78 4)(pt 82 8)(line_width 1))
		(line (pt 82 8)(pt 78 12)(line_width 1))
		(line (pt 78 12)(pt 82 8)(line_width 1))
	)
)
(symbol
	(rect 232 80 376 160)
	(text "PS_DFF_14" (rect 37 1 120 17)(font "Arial" (font_size 10)))
	(text "inst" (rect 8 64 25 76)(font "Arial" ))
	(port
		(pt 0 32)
		(input)
		(text "data[13..0]" (rect 0 0 60 14)(font "Arial" (font_size 8)))
		(text "data[13..0]" (rect 20 26 80 40)(font "Arial" (font_size 8)))
		(line (pt 0 32)(pt 16 32)(line_width 3))
	)
	(port
		(pt 0 48)
		(input)
		(text "clock" (rect 0 0 29 14)(font "Arial" (font_size 8)))
		(text "clock" (rect 26 42 55 56)(font "Arial" (font_size 8)))
		(line (pt 0 48)(pt 16 48)(line_width 1))
	)
	(port
		(pt 144 48)
		(output)
		(text "q[13..0]" (rect 0 0 42 14)(font "Arial" (font_size 8)))
		(text "q[13..0]" (rect 89 42 131 56)(font "Arial" (font_size 8)))
		(line (pt 144 48)(pt 128 48)(line_width 3))
	)
	(drawing
		(text "DFF" (rect 109 17 131 29)(font "Arial" ))
		(line (pt 16 16)(pt 128 16)(line_width 1))
		(line (pt 128 16)(pt 128 64)(line_width 1))
		(line (pt 128 64)(pt 16 64)(line_width 1))
		(line (pt 16 64)(pt 16 16)(line_width 1))
		(line (pt 16 42)(pt 22 48)(line_width 1))
		(line (pt 22 48)(pt 16 54)(line_width 1))
	)
)
(symbol
	(rect 424 96 568 176)
	(text "PS_DFF_14" (rect 37 1 120 17)(font "Arial" (font_size 10)))
	(text "inst2" (rect 8 64 31 76)(font "Arial" ))
	(port
		(pt 0 32)
		(input)
		(text "data[13..0]" (rect 0 0 60 14)(font "Arial" (font_size 8)))
		(text "data[13..0]" (rect 20 26 80 40)(font "Arial" (font_size 8)))
		(line (pt 0 32)(pt 16 32)(line_width 3))
	)
	(port
		(pt 0 48)
		(input)
		(text "clock" (rect 0 0 29 14)(font "Arial" (font_size 8)))
		(text "clock" (rect 26 42 55 56)(font "Arial" (font_size 8)))
		(line (pt 0 48)(pt 16 48)(line_width 1))
	)
	(port
		(pt 144 48)
		(output)
		(text "q[13..0]" (rect 0 0 42 14)(font "Arial" (font_size 8)))
		(text "q[13..0]" (rect 89 42 131 56)(font "Arial" (font_size 8)))
		(line (pt 144 48)(pt 128 48)(line_width 3))
	)
	(drawing
		(text "DFF" (rect 109 17 131 29)(font "Arial" ))
		(line (pt 16 16)(pt 128 16)(line_width 1))
		(line (pt 128 16)(pt 128 64)(line_width 1))
		(line (pt 128 64)(pt 16 64)(line_width 1))
		(line (pt 16 64)(pt 16 16)(line_width 1))
		(line (pt 16 42)(pt 22 48)(line_width 1))
		(line (pt 22 48)(pt 16 54)(line_width 1))
	)
)
(symbol
	(rect 616 112 760 192)
	(text "PS_DFF_14" (rect 37 1 120 17)(font "Arial" (font_size 10)))
	(text "inst3" (rect 8 64 31 76)(font "Arial" ))
	(port
		(pt 0 32)
		(input)
		(text "data[13..0]" (rect 0 0 60 14)(font "Arial" (font_size 8)))
		(text "data[13..0]" (rect 20 26 80 40)(font "Arial" (font_size 8)))
		(line (pt 0 32)(pt 16 32)(line_width 3))
	)
	(port
		(pt 0 48)
		(input)
		(text "clock" (rect 0 0 29 14)(font "Arial" (font_size 8)))
		(text "clock" (rect 26 42 55 56)(font "Arial" (font_size 8)))
		(line (pt 0 48)(pt 16 48)(line_width 1))
	)
	(port
		(pt 144 48)
		(output)
		(text "q[13..0]" (rect 0 0 42 14)(font "Arial" (font_size 8)))
		(text "q[13..0]" (rect 89 42 131 56)(font "Arial" (font_size 8)))
		(line (pt 144 48)(pt 128 48)(line_width 3))
	)
	(drawing
		(text "DFF" (rect 109 17 131 29)(font "Arial" ))
		(line (pt 16 16)(pt 128 16)(line_width 1))
		(line (pt 128 16)(pt 128 64)(line_width 1))
		(line (pt 128 64)(pt 16 64)(line_width 1))
		(line (pt 16 64)(pt 16 16)(line_width 1))
		(line (pt 16 42)(pt 22 48)(line_width 1))
		(line (pt 22 48)(pt 16 54)(line_width 1))
	)
)
(symbol
	(rect 808 128 952 208)
	(text "PS_DFF_14" (rect 37 1 120 17)(font "Arial" (font_size 10)))
	(text "inst4" (rect 8 64 31 76)(font "Arial" ))
	(port
		(pt 0 32)
		(input)
		(text "data[13..0]" (rect 0 0 60 14)(font "Arial" (font_size 8)))
		(text "data[13..0]" (rect 20 26 80 40)(font "Arial" (font_size 8)))
		(line (pt 0 32)(pt 16 32)(line_width 3))
	)
	(port
		(pt 0 48)
		(input)
		(text "clock" (rect 0 0 29 14)(font "Arial" (font_size 8)))
		(text "clock" (rect 26 42 55 56)(font "Arial" (font_size 8)))
		(line (pt 0 48)(pt 16 48)(line_width 1))
	)
	(port
		(pt 144 48)
		(output)
		(text "q[13..0]" (rect 0 0 42 14)(font "Arial" (font_size 8)))
		(text "q[13..0]" (rect 89 42 131 56)(font "Arial" (font_size 8)))
		(line (pt 144 48)(pt 128 48)(line_width 3))
	)
	(drawing
		(text "DFF" (rect 109 17 131 29)(font "Arial" ))
		(line (pt 16 16)(pt 128 16)(line_width 1))
		(line (pt 128 16)(pt 128 64)(line_width 1))
		(line (pt 128 64)(pt 16 64)(line_width 1))
		(line (pt 16 64)(pt 16 16)(line_width 1))
		(line (pt 16 42)(pt 22 48)(line_width 1))
		(line (pt 22 48)(pt 16 54)(line_width 1))
	)
)
(symbol
	(rect 1000 144 1144 224)
	(text "PS_DFF_14" (rect 37 1 120 17)(font "Arial" (font_size 10)))
	(text "inst5" (rect 8 64 31 76)(font "Arial" ))
	(port
		(pt 0 32)
		(input)
		(text "data[13..0]" (rect 0 0 60 14)(font "Arial" (font_size 8)))
		(text "data[13..0]" (rect 20 26 80 40)(font "Arial" (font_size 8)))
		(line (pt 0 32)(pt 16 32)(line_width 3))
	)
	(port
		(pt 0 48)
		(input)
		(text "clock" (rect 0 0 29 14)(font "Arial" (font_size 8)))
		(text "clock" (rect 26 42 55 56)(font "Arial" (font_size 8)))
		(line (pt 0 48)(pt 16 48)(line_width 1))
	)
	(port
		(pt 144 48)
		(output)
		(text "q[13..0]" (rect 0 0 42 14)(font "Arial" (font_size 8)))
		(text "q[13..0]" (rect 89 42 131 56)(font "Arial" (font_size 8)))
		(line (pt 144 48)(pt 128 48)(line_width 3))
	)
	(drawing
		(text "DFF" (rect 109 17 131 29)(font "Arial" ))
		(line (pt 16 16)(pt 128 16)(line_width 1))
		(line (pt 128 16)(pt 128 64)(line_width 1))
		(line (pt 128 64)(pt 16 64)(line_width 1))
		(line (pt 16 64)(pt 16 16)(line_width 1))
		(line (pt 16 42)(pt 22 48)(line_width 1))
		(line (pt 22 48)(pt 16 54)(line_width 1))
	)
)
(symbol
	(rect 1192 160 1336 240)
	(text "PS_DFF_14" (rect 37 1 120 17)(font "Arial" (font_size 10)))
	(text "inst6" (rect 8 64 31 76)(font "Arial" ))
	(port
		(pt 0 32)
		(input)
		(text "data[13..0]" (rect 0 0 60 14)(font "Arial" (font_size 8)))
		(text "data[13..0]" (rect 20 26 80 40)(font "Arial" (font_size 8)))
		(line (pt 0 32)(pt 16 32)(line_width 3))
	)
	(port
		(pt 0 48)
		(input)
		(text "clock" (rect 0 0 29 14)(font "Arial" (font_size 8)))
		(text "clock" (rect 26 42 55 56)(font "Arial" (font_size 8)))
		(line (pt 0 48)(pt 16 48)(line_width 1))
	)
	(port
		(pt 144 48)
		(output)
		(text "q[13..0]" (rect 0 0 42 14)(font "Arial" (font_size 8)))
		(text "q[13..0]" (rect 89 42 131 56)(font "Arial" (font_size 8)))
		(line (pt 144 48)(pt 128 48)(line_width 3))
	)
	(drawing
		(text "DFF" (rect 109 17 131 29)(font "Arial" ))
		(line (pt 16 16)(pt 128 16)(line_width 1))
		(line (pt 128 16)(pt 128 64)(line_width 1))
		(line (pt 128 64)(pt 16 64)(line_width 1))
		(line (pt 16 64)(pt 16 16)(line_width 1))
		(line (pt 16 42)(pt 22 48)(line_width 1))
		(line (pt 22 48)(pt 16 54)(line_width 1))
	)
)
(symbol
	(rect 1384 176 1528 256)
	(text "PS_DFF_14" (rect 37 1 120 17)(font "Arial" (font_size 10)))
	(text "inst7" (rect 8 64 31 76)(font "Arial" ))
	(port
		(pt 0 32)
		(input)
		(text "data[13..0]" (rect 0 0 60 14)(font "Arial" (font_size 8)))
		(text "data[13..0]" (rect 20 26 80 40)(font "Arial" (font_size 8)))
		(line (pt 0 32)(pt 16 32)(line_width 3))
	)
	(port
		(pt 0 48)
		(input)
		(text "clock" (rect 0 0 29 14)(font "Arial" (font_size 8)))
		(text "clock" (rect 26 42 55 56)(font "Arial" (font_size 8)))
		(line (pt 0 48)(pt 16 48)(line_width 1))
	)
	(port
		(pt 144 48)
		(output)
		(text "q[13..0]" (rect 0 0 42 14)(font "Arial" (font_size 8)))
		(text "q[13..0]" (rect 89 42 131 56)(font "Arial" (font_size 8)))
		(line (pt 144 48)(pt 128 48)(line_width 3))
	)
	(drawing
		(text "DFF" (rect 109 17 131 29)(font "Arial" ))
		(line (pt 16 16)(pt 128 16)(line_width 1))
		(line (pt 128 16)(pt 128 64)(line_width 1))
		(line (pt 128 64)(pt 16 64)(line_width 1))
		(line (pt 16 64)(pt 16 16)(line_width 1))
		(line (pt 16 42)(pt 22 48)(line_width 1))
		(line (pt 22 48)(pt 16 54)(line_width 1))
	)
)
(symbol
	(rect 1576 192 1720 272)
	(text "PS_DFF_14" (rect 37 1 120 17)(font "Arial" (font_size 10)))
	(text "inst8" (rect 8 64 31 76)(font "Arial" ))
	(port
		(pt 0 32)
		(input)
		(text "data[13..0]" (rect 0 0 60 14)(font "Arial" (font_size 8)))
		(text "data[13..0]" (rect 20 26 80 40)(font "Arial" (font_size 8)))
		(line (pt 0 32)(pt 16 32)(line_width 3))
	)
	(port
		(pt 0 48)
		(input)
		(text "clock" (rect 0 0 29 14)(font "Arial" (font_size 8)))
		(text "clock" (rect 26 42 55 56)(font "Arial" (font_size 8)))
		(line (pt 0 48)(pt 16 48)(line_width 1))
	)
	(port
		(pt 144 48)
		(output)
		(text "q[13..0]" (rect 0 0 42 14)(font "Arial" (font_size 8)))
		(text "q[13..0]" (rect 89 42 131 56)(font "Arial" (font_size 8)))
		(line (pt 144 48)(pt 128 48)(line_width 3))
	)
	(drawing
		(text "DFF" (rect 109 17 131 29)(font "Arial" ))
		(line (pt 16 16)(pt 128 16)(line_width 1))
		(line (pt 128 16)(pt 128 64)(line_width 1))
		(line (pt 128 64)(pt 16 64)(line_width 1))
		(line (pt 16 64)(pt 16 16)(line_width 1))
		(line (pt 16 42)(pt 22 48)(line_width 1))
		(line (pt 22 48)(pt 16 54)(line_width 1))
	)
)
(symbol
	(rect 1768 208 1912 288)
	(text "PS_DFF_14" (rect 37 1 120 17)(font "Arial" (font_size 10)))
	(text "inst9" (rect 8 64 31 76)(font "Arial" ))
	(port
		(pt 0 32)
		(input)
		(text "data[13..0]" (rect 0 0 60 14)(font "Arial" (font_size 8)))
		(text "data[13..0]" (rect 20 26 80 40)(font "Arial" (font_size 8)))
		(line (pt 0 32)(pt 16 32)(line_width 3))
	)
	(port
		(pt 0 48)
		(input)
		(text "clock" (rect 0 0 29 14)(font "Arial" (font_size 8)))
		(text "clock" (rect 26 42 55 56)(font "Arial" (font_size 8)))
		(line (pt 0 48)(pt 16 48)(line_width 1))
	)
	(port
		(pt 144 48)
		(output)
		(text "q[13..0]" (rect 0 0 42 14)(font "Arial" (font_size 8)))
		(text "q[13..0]" (rect 89 42 131 56)(font "Arial" (font_size 8)))
		(line (pt 144 48)(pt 128 48)(line_width 3))
	)
	(drawing
		(text "DFF" (rect 109 17 131 29)(font "Arial" ))
		(line (pt 16 16)(pt 128 16)(line_width 1))
		(line (pt 128 16)(pt 128 64)(line_width 1))
		(line (pt 128 64)(pt 16 64)(line_width 1))
		(line (pt 16 64)(pt 16 16)(line_width 1))
		(line (pt 16 42)(pt 22 48)(line_width 1))
		(line (pt 22 48)(pt 16 54)(line_width 1))
	)
)
(symbol
	(rect 1960 224 2104 304)
	(text "PS_DFF_14" (rect 37 1 120 17)(font "Arial" (font_size 10)))
	(text "inst10" (rect 8 64 37 76)(font "Arial" ))
	(port
		(pt 0 32)
		(input)
		(text "data[13..0]" (rect 0 0 60 14)(font "Arial" (font_size 8)))
		(text "data[13..0]" (rect 20 26 80 40)(font "Arial" (font_size 8)))
		(line (pt 0 32)(pt 16 32)(line_width 3))
	)
	(port
		(pt 0 48)
		(input)
		(text "clock" (rect 0 0 29 14)(font "Arial" (font_size 8)))
		(text "clock" (rect 26 42 55 56)(font "Arial" (font_size 8)))
		(line (pt 0 48)(pt 16 48)(line_width 1))
	)
	(port
		(pt 144 48)
		(output)
		(text "q[13..0]" (rect 0 0 42 14)(font "Arial" (font_size 8)))
		(text "q[13..0]" (rect 89 42 131 56)(font "Arial" (font_size 8)))
		(line (pt 144 48)(pt 128 48)(line_width 3))
	)
	(drawing
		(text "DFF" (rect 109 17 131 29)(font "Arial" ))
		(line (pt 16 16)(pt 128 16)(line_width 1))
		(line (pt 128 16)(pt 128 64)(line_width 1))
		(line (pt 128 64)(pt 16 64)(line_width 1))
		(line (pt 16 64)(pt 16 16)(line_width 1))
		(line (pt 16 42)(pt 22 48)(line_width 1))
		(line (pt 22 48)(pt 16 54)(line_width 1))
	)
)
(symbol
	(rect 2152 240 2296 320)
	(text "PS_DFF_14" (rect 37 1 120 17)(font "Arial" (font_size 10)))
	(text "inst11" (rect 8 64 37 76)(font "Arial" ))
	(port
		(pt 0 32)
		(input)
		(text "data[13..0]" (rect 0 0 60 14)(font "Arial" (font_size 8)))
		(text "data[13..0]" (rect 20 26 80 40)(font "Arial" (font_size 8)))
		(line (pt 0 32)(pt 16 32)(line_width 3))
	)
	(port
		(pt 0 48)
		(input)
		(text "clock" (rect 0 0 29 14)(font "Arial" (font_size 8)))
		(text "clock" (rect 26 42 55 56)(font "Arial" (font_size 8)))
		(line (pt 0 48)(pt 16 48)(line_width 1))
	)
	(port
		(pt 144 48)
		(output)
		(text "q[13..0]" (rect 0 0 42 14)(font "Arial" (font_size 8)))
		(text "q[13..0]" (rect 89 42 131 56)(font "Arial" (font_size 8)))
		(line (pt 144 48)(pt 128 48)(line_width 3))
	)
	(drawing
		(text "DFF" (rect 109 17 131 29)(font "Arial" ))
		(line (pt 16 16)(pt 128 16)(line_width 1))
		(line (pt 128 16)(pt 128 64)(line_width 1))
		(line (pt 128 64)(pt 16 64)(line_width 1))
		(line (pt 16 64)(pt 16 16)(line_width 1))
		(line (pt 16 42)(pt 22 48)(line_width 1))
		(line (pt 22 48)(pt 16 54)(line_width 1))
	)
)
(symbol
	(rect 2344 256 2488 336)
	(text "PS_DFF_14" (rect 37 1 120 17)(font "Arial" (font_size 10)))
	(text "inst12" (rect 8 64 37 76)(font "Arial" ))
	(port
		(pt 0 32)
		(input)
		(text "data[13..0]" (rect 0 0 60 14)(font "Arial" (font_size 8)))
		(text "data[13..0]" (rect 20 26 80 40)(font "Arial" (font_size 8)))
		(line (pt 0 32)(pt 16 32)(line_width 3))
	)
	(port
		(pt 0 48)
		(input)
		(text "clock" (rect 0 0 29 14)(font "Arial" (font_size 8)))
		(text "clock" (rect 26 42 55 56)(font "Arial" (font_size 8)))
		(line (pt 0 48)(pt 16 48)(line_width 1))
	)
	(port
		(pt 144 48)
		(output)
		(text "q[13..0]" (rect 0 0 42 14)(font "Arial" (font_size 8)))
		(text "q[13..0]" (rect 89 42 131 56)(font "Arial" (font_size 8)))
		(line (pt 144 48)(pt 128 48)(line_width 3))
	)
	(drawing
		(text "DFF" (rect 109 17 131 29)(font "Arial" ))
		(line (pt 16 16)(pt 128 16)(line_width 1))
		(line (pt 128 16)(pt 128 64)(line_width 1))
		(line (pt 128 64)(pt 16 64)(line_width 1))
		(line (pt 16 64)(pt 16 16)(line_width 1))
		(line (pt 16 42)(pt 22 48)(line_width 1))
		(line (pt 22 48)(pt 16 54)(line_width 1))
	)
)
(symbol
	(rect 2536 272 2680 352)
	(text "PS_DFF_14" (rect 37 1 120 17)(font "Arial" (font_size 10)))
	(text "inst13" (rect 8 64 37 76)(font "Arial" ))
	(port
		(pt 0 32)
		(input)
		(text "data[13..0]" (rect 0 0 60 14)(font "Arial" (font_size 8)))
		(text "data[13..0]" (rect 20 26 80 40)(font "Arial" (font_size 8)))
		(line (pt 0 32)(pt 16 32)(line_width 3))
	)
	(port
		(pt 0 48)
		(input)
		(text "clock" (rect 0 0 29 14)(font "Arial" (font_size 8)))
		(text "clock" (rect 26 42 55 56)(font "Arial" (font_size 8)))
		(line (pt 0 48)(pt 16 48)(line_width 1))
	)
	(port
		(pt 144 48)
		(output)
		(text "q[13..0]" (rect 0 0 42 14)(font "Arial" (font_size 8)))
		(text "q[13..0]" (rect 89 42 131 56)(font "Arial" (font_size 8)))
		(line (pt 144 48)(pt 128 48)(line_width 3))
	)
	(drawing
		(text "DFF" (rect 109 17 131 29)(font "Arial" ))
		(line (pt 16 16)(pt 128 16)(line_width 1))
		(line (pt 128 16)(pt 128 64)(line_width 1))
		(line (pt 128 64)(pt 16 64)(line_width 1))
		(line (pt 16 64)(pt 16 16)(line_width 1))
		(line (pt 16 42)(pt 22 48)(line_width 1))
		(line (pt 22 48)(pt 16 54)(line_width 1))
	)
)
(symbol
	(rect 2728 288 2872 368)
	(text "PS_DFF_14" (rect 37 1 120 17)(font "Arial" (font_size 10)))
	(text "inst14" (rect 8 64 37 76)(font "Arial" ))
	(port
		(pt 0 32)
		(input)
		(text "data[13..0]" (rect 0 0 60 14)(font "Arial" (font_size 8)))
		(text "data[13..0]" (rect 20 26 80 40)(font "Arial" (font_size 8)))
		(line (pt 0 32)(pt 16 32)(line_width 3))
	)
	(port
		(pt 0 48)
		(input)
		(text "clock" (rect 0 0 29 14)(font "Arial" (font_size 8)))
		(text "clock" (rect 26 42 55 56)(font "Arial" (font_size 8)))
		(line (pt 0 48)(pt 16 48)(line_width 1))
	)
	(port
		(pt 144 48)
		(output)
		(text "q[13..0]" (rect 0 0 42 14)(font "Arial" (font_size 8)))
		(text "q[13..0]" (rect 89 42 131 56)(font "Arial" (font_size 8)))
		(line (pt 144 48)(pt 128 48)(line_width 3))
	)
	(drawing
		(text "DFF" (rect 109 17 131 29)(font "Arial" ))
		(line (pt 16 16)(pt 128 16)(line_width 1))
		(line (pt 128 16)(pt 128 64)(line_width 1))
		(line (pt 128 64)(pt 16 64)(line_width 1))
		(line (pt 16 64)(pt 16 16)(line_width 1))
		(line (pt 16 42)(pt 22 48)(line_width 1))
		(line (pt 22 48)(pt 16 54)(line_width 1))
	)
)
(symbol
	(rect 2920 304 3064 384)
	(text "PS_DFF_14" (rect 37 1 120 17)(font "Arial" (font_size 10)))
	(text "inst15" (rect 8 64 37 76)(font "Arial" ))
	(port
		(pt 0 32)
		(input)
		(text "data[13..0]" (rect 0 0 60 14)(font "Arial" (font_size 8)))
		(text "data[13..0]" (rect 20 26 80 40)(font "Arial" (font_size 8)))
		(line (pt 0 32)(pt 16 32)(line_width 3))
	)
	(port
		(pt 0 48)
		(input)
		(text "clock" (rect 0 0 29 14)(font "Arial" (font_size 8)))
		(text "clock" (rect 26 42 55 56)(font "Arial" (font_size 8)))
		(line (pt 0 48)(pt 16 48)(line_width 1))
	)
	(port
		(pt 144 48)
		(output)
		(text "q[13..0]" (rect 0 0 42 14)(font "Arial" (font_size 8)))
		(text "q[13..0]" (rect 89 42 131 56)(font "Arial" (font_size 8)))
		(line (pt 144 48)(pt 128 48)(line_width 3))
	)
	(drawing
		(text "DFF" (rect 109 17 131 29)(font "Arial" ))
		(line (pt 16 16)(pt 128 16)(line_width 1))
		(line (pt 128 16)(pt 128 64)(line_width 1))
		(line (pt 128 64)(pt 16 64)(line_width 1))
		(line (pt 16 64)(pt 16 16)(line_width 1))
		(line (pt 16 42)(pt 22 48)(line_width 1))
		(line (pt 22 48)(pt 16 54)(line_width 1))
	)
)
(symbol
	(rect 3112 320 3256 400)
	(text "PS_DFF_14" (rect 37 1 120 17)(font "Arial" (font_size 10)))
	(text "inst16" (rect 8 64 37 76)(font "Arial" ))
	(port
		(pt 0 32)
		(input)
		(text "data[13..0]" (rect 0 0 60 14)(font "Arial" (font_size 8)))
		(text "data[13..0]" (rect 20 26 80 40)(font "Arial" (font_size 8)))
		(line (pt 0 32)(pt 16 32)(line_width 3))
	)
	(port
		(pt 0 48)
		(input)
		(text "clock" (rect 0 0 29 14)(font "Arial" (font_size 8)))
		(text "clock" (rect 26 42 55 56)(font "Arial" (font_size 8)))
		(line (pt 0 48)(pt 16 48)(line_width 1))
	)
	(port
		(pt 144 48)
		(output)
		(text "q[13..0]" (rect 0 0 42 14)(font "Arial" (font_size 8)))
		(text "q[13..0]" (rect 89 42 131 56)(font "Arial" (font_size 8)))
		(line (pt 144 48)(pt 128 48)(line_width 3))
	)
	(drawing
		(text "DFF" (rect 109 17 131 29)(font "Arial" ))
		(line (pt 16 16)(pt 128 16)(line_width 1))
		(line (pt 128 16)(pt 128 64)(line_width 1))
		(line (pt 128 64)(pt 16 64)(line_width 1))
		(line (pt 16 64)(pt 16 16)(line_width 1))
		(line (pt 16 42)(pt 22 48)(line_width 1))
		(line (pt 22 48)(pt 16 54)(line_width 1))
	)
)
(symbol
	(rect 232 200 376 280)
	(text "PS_DFF_14" (rect 37 1 120 17)(font "Arial" (font_size 10)))
	(text "inst17" (rect 8 64 37 76)(font "Arial" ))
	(port
		(pt 0 32)
		(input)
		(text "data[13..0]" (rect 0 0 60 14)(font "Arial" (font_size 8)))
		(text "data[13..0]" (rect 20 26 80 40)(font "Arial" (font_size 8)))
		(line (pt 0 32)(pt 16 32)(line_width 3))
	)
	(port
		(pt 0 48)
		(input)
		(text "clock" (rect 0 0 29 14)(font "Arial" (font_size 8)))
		(text "clock" (rect 26 42 55 56)(font "Arial" (font_size 8)))
		(line (pt 0 48)(pt 16 48)(line_width 1))
	)
	(port
		(pt 144 48)
		(output)
		(text "q[13..0]" (rect 0 0 42 14)(font "Arial" (font_size 8)))
		(text "q[13..0]" (rect 89 42 131 56)(font "Arial" (font_size 8)))
		(line (pt 144 48)(pt 128 48)(line_width 3))
	)
	(drawing
		(text "DFF" (rect 109 17 131 29)(font "Arial" ))
		(line (pt 16 16)(pt 128 16)(line_width 1))
		(line (pt 128 16)(pt 128 64)(line_width 1))
		(line (pt 128 64)(pt 16 64)(line_width 1))
		(line (pt 16 64)(pt 16 16)(line_width 1))
		(line (pt 16 42)(pt 22 48)(line_width 1))
		(line (pt 22 48)(pt 16 54)(line_width 1))
	)
)
(symbol
	(rect 424 216 568 296)
	(text "PS_DFF_14" (rect 37 1 120 17)(font "Arial" (font_size 10)))
	(text "inst18" (rect 8 64 37 76)(font "Arial" ))
	(port
		(pt 0 32)
		(input)
		(text "data[13..0]" (rect 0 0 60 14)(font "Arial" (font_size 8)))
		(text "data[13..0]" (rect 20 26 80 40)(font "Arial" (font_size 8)))
		(line (pt 0 32)(pt 16 32)(line_width 3))
	)
	(port
		(pt 0 48)
		(input)
		(text "clock" (rect 0 0 29 14)(font "Arial" (font_size 8)))
		(text "clock" (rect 26 42 55 56)(font "Arial" (font_size 8)))
		(line (pt 0 48)(pt 16 48)(line_width 1))
	)
	(port
		(pt 144 48)
		(output)
		(text "q[13..0]" (rect 0 0 42 14)(font "Arial" (font_size 8)))
		(text "q[13..0]" (rect 89 42 131 56)(font "Arial" (font_size 8)))
		(line (pt 144 48)(pt 128 48)(line_width 3))
	)
	(drawing
		(text "DFF" (rect 109 17 131 29)(font "Arial" ))
		(line (pt 16 16)(pt 128 16)(line_width 1))
		(line (pt 128 16)(pt 128 64)(line_width 1))
		(line (pt 128 64)(pt 16 64)(line_width 1))
		(line (pt 16 64)(pt 16 16)(line_width 1))
		(line (pt 16 42)(pt 22 48)(line_width 1))
		(line (pt 22 48)(pt 16 54)(line_width 1))
	)
)
(symbol
	(rect 616 232 760 312)
	(text "PS_DFF_14" (rect 37 1 120 17)(font "Arial" (font_size 10)))
	(text "inst19" (rect 8 64 37 76)(font "Arial" ))
	(port
		(pt 0 32)
		(input)
		(text "data[13..0]" (rect 0 0 60 14)(font "Arial" (font_size 8)))
		(text "data[13..0]" (rect 20 26 80 40)(font "Arial" (font_size 8)))
		(line (pt 0 32)(pt 16 32)(line_width 3))
	)
	(port
		(pt 0 48)
		(input)
		(text "clock" (rect 0 0 29 14)(font "Arial" (font_size 8)))
		(text "clock" (rect 26 42 55 56)(font "Arial" (font_size 8)))
		(line (pt 0 48)(pt 16 48)(line_width 1))
	)
	(port
		(pt 144 48)
		(output)
		(text "q[13..0]" (rect 0 0 42 14)(font "Arial" (font_size 8)))
		(text "q[13..0]" (rect 89 42 131 56)(font "Arial" (font_size 8)))
		(line (pt 144 48)(pt 128 48)(line_width 3))
	)
	(drawing
		(text "DFF" (rect 109 17 131 29)(font "Arial" ))
		(line (pt 16 16)(pt 128 16)(line_width 1))
		(line (pt 128 16)(pt 128 64)(line_width 1))
		(line (pt 128 64)(pt 16 64)(line_width 1))
		(line (pt 16 64)(pt 16 16)(line_width 1))
		(line (pt 16 42)(pt 22 48)(line_width 1))
		(line (pt 22 48)(pt 16 54)(line_width 1))
	)
)
(symbol
	(rect 808 248 952 328)
	(text "PS_DFF_14" (rect 37 1 120 17)(font "Arial" (font_size 10)))
	(text "inst20" (rect 8 64 37 76)(font "Arial" ))
	(port
		(pt 0 32)
		(input)
		(text "data[13..0]" (rect 0 0 60 14)(font "Arial" (font_size 8)))
		(text "data[13..0]" (rect 20 26 80 40)(font "Arial" (font_size 8)))
		(line (pt 0 32)(pt 16 32)(line_width 3))
	)
	(port
		(pt 0 48)
		(input)
		(text "clock" (rect 0 0 29 14)(font "Arial" (font_size 8)))
		(text "clock" (rect 26 42 55 56)(font "Arial" (font_size 8)))
		(line (pt 0 48)(pt 16 48)(line_width 1))
	)
	(port
		(pt 144 48)
		(output)
		(text "q[13..0]" (rect 0 0 42 14)(font "Arial" (font_size 8)))
		(text "q[13..0]" (rect 89 42 131 56)(font "Arial" (font_size 8)))
		(line (pt 144 48)(pt 128 48)(line_width 3))
	)
	(drawing
		(text "DFF" (rect 109 17 131 29)(font "Arial" ))
		(line (pt 16 16)(pt 128 16)(line_width 1))
		(line (pt 128 16)(pt 128 64)(line_width 1))
		(line (pt 128 64)(pt 16 64)(line_width 1))
		(line (pt 16 64)(pt 16 16)(line_width 1))
		(line (pt 16 42)(pt 22 48)(line_width 1))
		(line (pt 22 48)(pt 16 54)(line_width 1))
	)
)
(symbol
	(rect 1000 264 1144 344)
	(text "PS_DFF_14" (rect 37 1 120 17)(font "Arial" (font_size 10)))
	(text "inst21" (rect 8 64 37 76)(font "Arial" ))
	(port
		(pt 0 32)
		(input)
		(text "data[13..0]" (rect 0 0 60 14)(font "Arial" (font_size 8)))
		(text "data[13..0]" (rect 20 26 80 40)(font "Arial" (font_size 8)))
		(line (pt 0 32)(pt 16 32)(line_width 3))
	)
	(port
		(pt 0 48)
		(input)
		(text "clock" (rect 0 0 29 14)(font "Arial" (font_size 8)))
		(text "clock" (rect 26 42 55 56)(font "Arial" (font_size 8)))
		(line (pt 0 48)(pt 16 48)(line_width 1))
	)
	(port
		(pt 144 48)
		(output)
		(text "q[13..0]" (rect 0 0 42 14)(font "Arial" (font_size 8)))
		(text "q[13..0]" (rect 89 42 131 56)(font "Arial" (font_size 8)))
		(line (pt 144 48)(pt 128 48)(line_width 3))
	)
	(drawing
		(text "DFF" (rect 109 17 131 29)(font "Arial" ))
		(line (pt 16 16)(pt 128 16)(line_width 1))
		(line (pt 128 16)(pt 128 64)(line_width 1))
		(line (pt 128 64)(pt 16 64)(line_width 1))
		(line (pt 16 64)(pt 16 16)(line_width 1))
		(line (pt 16 42)(pt 22 48)(line_width 1))
		(line (pt 22 48)(pt 16 54)(line_width 1))
	)
)
(symbol
	(rect 1192 280 1336 360)
	(text "PS_DFF_14" (rect 37 1 120 17)(font "Arial" (font_size 10)))
	(text "inst22" (rect 8 64 37 76)(font "Arial" ))
	(port
		(pt 0 32)
		(input)
		(text "data[13..0]" (rect 0 0 60 14)(font "Arial" (font_size 8)))
		(text "data[13..0]" (rect 20 26 80 40)(font "Arial" (font_size 8)))
		(line (pt 0 32)(pt 16 32)(line_width 3))
	)
	(port
		(pt 0 48)
		(input)
		(text "clock" (rect 0 0 29 14)(font "Arial" (font_size 8)))
		(text "clock" (rect 26 42 55 56)(font "Arial" (font_size 8)))
		(line (pt 0 48)(pt 16 48)(line_width 1))
	)
	(port
		(pt 144 48)
		(output)
		(text "q[13..0]" (rect 0 0 42 14)(font "Arial" (font_size 8)))
		(text "q[13..0]" (rect 89 42 131 56)(font "Arial" (font_size 8)))
		(line (pt 144 48)(pt 128 48)(line_width 3))
	)
	(drawing
		(text "DFF" (rect 109 17 131 29)(font "Arial" ))
		(line (pt 16 16)(pt 128 16)(line_width 1))
		(line (pt 128 16)(pt 128 64)(line_width 1))
		(line (pt 128 64)(pt 16 64)(line_width 1))
		(line (pt 16 64)(pt 16 16)(line_width 1))
		(line (pt 16 42)(pt 22 48)(line_width 1))
		(line (pt 22 48)(pt 16 54)(line_width 1))
	)
)
(symbol
	(rect 1384 296 1528 376)
	(text "PS_DFF_14" (rect 37 1 120 17)(font "Arial" (font_size 10)))
	(text "inst23" (rect 8 64 37 76)(font "Arial" ))
	(port
		(pt 0 32)
		(input)
		(text "data[13..0]" (rect 0 0 60 14)(font "Arial" (font_size 8)))
		(text "data[13..0]" (rect 20 26 80 40)(font "Arial" (font_size 8)))
		(line (pt 0 32)(pt 16 32)(line_width 3))
	)
	(port
		(pt 0 48)
		(input)
		(text "clock" (rect 0 0 29 14)(font "Arial" (font_size 8)))
		(text "clock" (rect 26 42 55 56)(font "Arial" (font_size 8)))
		(line (pt 0 48)(pt 16 48)(line_width 1))
	)
	(port
		(pt 144 48)
		(output)
		(text "q[13..0]" (rect 0 0 42 14)(font "Arial" (font_size 8)))
		(text "q[13..0]" (rect 89 42 131 56)(font "Arial" (font_size 8)))
		(line (pt 144 48)(pt 128 48)(line_width 3))
	)
	(drawing
		(text "DFF" (rect 109 17 131 29)(font "Arial" ))
		(line (pt 16 16)(pt 128 16)(line_width 1))
		(line (pt 128 16)(pt 128 64)(line_width 1))
		(line (pt 128 64)(pt 16 64)(line_width 1))
		(line (pt 16 64)(pt 16 16)(line_width 1))
		(line (pt 16 42)(pt 22 48)(line_width 1))
		(line (pt 22 48)(pt 16 54)(line_width 1))
	)
)
(symbol
	(rect 1576 312 1720 392)
	(text "PS_DFF_14" (rect 37 1 120 17)(font "Arial" (font_size 10)))
	(text "inst24" (rect 8 64 37 76)(font "Arial" ))
	(port
		(pt 0 32)
		(input)
		(text "data[13..0]" (rect 0 0 60 14)(font "Arial" (font_size 8)))
		(text "data[13..0]" (rect 20 26 80 40)(font "Arial" (font_size 8)))
		(line (pt 0 32)(pt 16 32)(line_width 3))
	)
	(port
		(pt 0 48)
		(input)
		(text "clock" (rect 0 0 29 14)(font "Arial" (font_size 8)))
		(text "clock" (rect 26 42 55 56)(font "Arial" (font_size 8)))
		(line (pt 0 48)(pt 16 48)(line_width 1))
	)
	(port
		(pt 144 48)
		(output)
		(text "q[13..0]" (rect 0 0 42 14)(font "Arial" (font_size 8)))
		(text "q[13..0]" (rect 89 42 131 56)(font "Arial" (font_size 8)))
		(line (pt 144 48)(pt 128 48)(line_width 3))
	)
	(drawing
		(text "DFF" (rect 109 17 131 29)(font "Arial" ))
		(line (pt 16 16)(pt 128 16)(line_width 1))
		(line (pt 128 16)(pt 128 64)(line_width 1))
		(line (pt 128 64)(pt 16 64)(line_width 1))
		(line (pt 16 64)(pt 16 16)(line_width 1))
		(line (pt 16 42)(pt 22 48)(line_width 1))
		(line (pt 22 48)(pt 16 54)(line_width 1))
	)
)
(symbol
	(rect 1768 328 1912 408)
	(text "PS_DFF_14" (rect 37 1 120 17)(font "Arial" (font_size 10)))
	(text "inst25" (rect 8 64 37 76)(font "Arial" ))
	(port
		(pt 0 32)
		(input)
		(text "data[13..0]" (rect 0 0 60 14)(font "Arial" (font_size 8)))
		(text "data[13..0]" (rect 20 26 80 40)(font "Arial" (font_size 8)))
		(line (pt 0 32)(pt 16 32)(line_width 3))
	)
	(port
		(pt 0 48)
		(input)
		(text "clock" (rect 0 0 29 14)(font "Arial" (font_size 8)))
		(text "clock" (rect 26 42 55 56)(font "Arial" (font_size 8)))
		(line (pt 0 48)(pt 16 48)(line_width 1))
	)
	(port
		(pt 144 48)
		(output)
		(text "q[13..0]" (rect 0 0 42 14)(font "Arial" (font_size 8)))
		(text "q[13..0]" (rect 89 42 131 56)(font "Arial" (font_size 8)))
		(line (pt 144 48)(pt 128 48)(line_width 3))
	)
	(drawing
		(text "DFF" (rect 109 17 131 29)(font "Arial" ))
		(line (pt 16 16)(pt 128 16)(line_width 1))
		(line (pt 128 16)(pt 128 64)(line_width 1))
		(line (pt 128 64)(pt 16 64)(line_width 1))
		(line (pt 16 64)(pt 16 16)(line_width 1))
		(line (pt 16 42)(pt 22 48)(line_width 1))
		(line (pt 22 48)(pt 16 54)(line_width 1))
	)
)
(symbol
	(rect 1960 344 2104 424)
	(text "PS_DFF_14" (rect 37 1 120 17)(font "Arial" (font_size 10)))
	(text "inst26" (rect 8 64 37 76)(font "Arial" ))
	(port
		(pt 0 32)
		(input)
		(text "data[13..0]" (rect 0 0 60 14)(font "Arial" (font_size 8)))
		(text "data[13..0]" (rect 20 26 80 40)(font "Arial" (font_size 8)))
		(line (pt 0 32)(pt 16 32)(line_width 3))
	)
	(port
		(pt 0 48)
		(input)
		(text "clock" (rect 0 0 29 14)(font "Arial" (font_size 8)))
		(text "clock" (rect 26 42 55 56)(font "Arial" (font_size 8)))
		(line (pt 0 48)(pt 16 48)(line_width 1))
	)
	(port
		(pt 144 48)
		(output)
		(text "q[13..0]" (rect 0 0 42 14)(font "Arial" (font_size 8)))
		(text "q[13..0]" (rect 89 42 131 56)(font "Arial" (font_size 8)))
		(line (pt 144 48)(pt 128 48)(line_width 3))
	)
	(drawing
		(text "DFF" (rect 109 17 131 29)(font "Arial" ))
		(line (pt 16 16)(pt 128 16)(line_width 1))
		(line (pt 128 16)(pt 128 64)(line_width 1))
		(line (pt 128 64)(pt 16 64)(line_width 1))
		(line (pt 16 64)(pt 16 16)(line_width 1))
		(line (pt 16 42)(pt 22 48)(line_width 1))
		(line (pt 22 48)(pt 16 54)(line_width 1))
	)
)
(symbol
	(rect 2152 360 2296 440)
	(text "PS_DFF_14" (rect 37 1 120 17)(font "Arial" (font_size 10)))
	(text "inst27" (rect 8 64 37 76)(font "Arial" ))
	(port
		(pt 0 32)
		(input)
		(text "data[13..0]" (rect 0 0 60 14)(font "Arial" (font_size 8)))
		(text "data[13..0]" (rect 20 26 80 40)(font "Arial" (font_size 8)))
		(line (pt 0 32)(pt 16 32)(line_width 3))
	)
	(port
		(pt 0 48)
		(input)
		(text "clock" (rect 0 0 29 14)(font "Arial" (font_size 8)))
		(text "clock" (rect 26 42 55 56)(font "Arial" (font_size 8)))
		(line (pt 0 48)(pt 16 48)(line_width 1))
	)
	(port
		(pt 144 48)
		(output)
		(text "q[13..0]" (rect 0 0 42 14)(font "Arial" (font_size 8)))
		(text "q[13..0]" (rect 89 42 131 56)(font "Arial" (font_size 8)))
		(line (pt 144 48)(pt 128 48)(line_width 3))
	)
	(drawing
		(text "DFF" (rect 109 17 131 29)(font "Arial" ))
		(line (pt 16 16)(pt 128 16)(line_width 1))
		(line (pt 128 16)(pt 128 64)(line_width 1))
		(line (pt 128 64)(pt 16 64)(line_width 1))
		(line (pt 16 64)(pt 16 16)(line_width 1))
		(line (pt 16 42)(pt 22 48)(line_width 1))
		(line (pt 22 48)(pt 16 54)(line_width 1))
	)
)
(symbol
	(rect 2344 376 2488 456)
	(text "PS_DFF_14" (rect 37 1 120 17)(font "Arial" (font_size 10)))
	(text "inst28" (rect 8 64 37 76)(font "Arial" ))
	(port
		(pt 0 32)
		(input)
		(text "data[13..0]" (rect 0 0 60 14)(font "Arial" (font_size 8)))
		(text "data[13..0]" (rect 20 26 80 40)(font "Arial" (font_size 8)))
		(line (pt 0 32)(pt 16 32)(line_width 3))
	)
	(port
		(pt 0 48)
		(input)
		(text "clock" (rect 0 0 29 14)(font "Arial" (font_size 8)))
		(text "clock" (rect 26 42 55 56)(font "Arial" (font_size 8)))
		(line (pt 0 48)(pt 16 48)(line_width 1))
	)
	(port
		(pt 144 48)
		(output)
		(text "q[13..0]" (rect 0 0 42 14)(font "Arial" (font_size 8)))
		(text "q[13..0]" (rect 89 42 131 56)(font "Arial" (font_size 8)))
		(line (pt 144 48)(pt 128 48)(line_width 3))
	)
	(drawing
		(text "DFF" (rect 109 17 131 29)(font "Arial" ))
		(line (pt 16 16)(pt 128 16)(line_width 1))
		(line (pt 128 16)(pt 128 64)(line_width 1))
		(line (pt 128 64)(pt 16 64)(line_width 1))
		(line (pt 16 64)(pt 16 16)(line_width 1))
		(line (pt 16 42)(pt 22 48)(line_width 1))
		(line (pt 22 48)(pt 16 54)(line_width 1))
	)
)
(symbol
	(rect 2536 392 2680 472)
	(text "PS_DFF_14" (rect 37 1 120 17)(font "Arial" (font_size 10)))
	(text "inst29" (rect 8 64 37 76)(font "Arial" ))
	(port
		(pt 0 32)
		(input)
		(text "data[13..0]" (rect 0 0 60 14)(font "Arial" (font_size 8)))
		(text "data[13..0]" (rect 20 26 80 40)(font "Arial" (font_size 8)))
		(line (pt 0 32)(pt 16 32)(line_width 3))
	)
	(port
		(pt 0 48)
		(input)
		(text "clock" (rect 0 0 29 14)(font "Arial" (font_size 8)))
		(text "clock" (rect 26 42 55 56)(font "Arial" (font_size 8)))
		(line (pt 0 48)(pt 16 48)(line_width 1))
	)
	(port
		(pt 144 48)
		(output)
		(text "q[13..0]" (rect 0 0 42 14)(font "Arial" (font_size 8)))
		(text "q[13..0]" (rect 89 42 131 56)(font "Arial" (font_size 8)))
		(line (pt 144 48)(pt 128 48)(line_width 3))
	)
	(drawing
		(text "DFF" (rect 109 17 131 29)(font "Arial" ))
		(line (pt 16 16)(pt 128 16)(line_width 1))
		(line (pt 128 16)(pt 128 64)(line_width 1))
		(line (pt 128 64)(pt 16 64)(line_width 1))
		(line (pt 16 64)(pt 16 16)(line_width 1))
		(line (pt 16 42)(pt 22 48)(line_width 1))
		(line (pt 22 48)(pt 16 54)(line_width 1))
	)
)
(symbol
	(rect 2728 408 2872 488)
	(text "PS_DFF_14" (rect 37 1 120 17)(font "Arial" (font_size 10)))
	(text "inst30" (rect 8 64 37 76)(font "Arial" ))
	(port
		(pt 0 32)
		(input)
		(text "data[13..0]" (rect 0 0 60 14)(font "Arial" (font_size 8)))
		(text "data[13..0]" (rect 20 26 80 40)(font "Arial" (font_size 8)))
		(line (pt 0 32)(pt 16 32)(line_width 3))
	)
	(port
		(pt 0 48)
		(input)
		(text "clock" (rect 0 0 29 14)(font "Arial" (font_size 8)))
		(text "clock" (rect 26 42 55 56)(font "Arial" (font_size 8)))
		(line (pt 0 48)(pt 16 48)(line_width 1))
	)
	(port
		(pt 144 48)
		(output)
		(text "q[13..0]" (rect 0 0 42 14)(font "Arial" (font_size 8)))
		(text "q[13..0]" (rect 89 42 131 56)(font "Arial" (font_size 8)))
		(line (pt 144 48)(pt 128 48)(line_width 3))
	)
	(drawing
		(text "DFF" (rect 109 17 131 29)(font "Arial" ))
		(line (pt 16 16)(pt 128 16)(line_width 1))
		(line (pt 128 16)(pt 128 64)(line_width 1))
		(line (pt 128 64)(pt 16 64)(line_width 1))
		(line (pt 16 64)(pt 16 16)(line_width 1))
		(line (pt 16 42)(pt 22 48)(line_width 1))
		(line (pt 22 48)(pt 16 54)(line_width 1))
	)
)
(symbol
	(rect 2920 424 3064 504)
	(text "PS_DFF_14" (rect 37 1 120 17)(font "Arial" (font_size 10)))
	(text "inst31" (rect 8 64 37 76)(font "Arial" ))
	(port
		(pt 0 32)
		(input)
		(text "data[13..0]" (rect 0 0 60 14)(font "Arial" (font_size 8)))
		(text "data[13..0]" (rect 20 26 80 40)(font "Arial" (font_size 8)))
		(line (pt 0 32)(pt 16 32)(line_width 3))
	)
	(port
		(pt 0 48)
		(input)
		(text "clock" (rect 0 0 29 14)(font "Arial" (font_size 8)))
		(text "clock" (rect 26 42 55 56)(font "Arial" (font_size 8)))
		(line (pt 0 48)(pt 16 48)(line_width 1))
	)
	(port
		(pt 144 48)
		(output)
		(text "q[13..0]" (rect 0 0 42 14)(font "Arial" (font_size 8)))
		(text "q[13..0]" (rect 89 42 131 56)(font "Arial" (font_size 8)))
		(line (pt 144 48)(pt 128 48)(line_width 3))
	)
	(drawing
		(text "DFF" (rect 109 17 131 29)(font "Arial" ))
		(line (pt 16 16)(pt 128 16)(line_width 1))
		(line (pt 128 16)(pt 128 64)(line_width 1))
		(line (pt 128 64)(pt 16 64)(line_width 1))
		(line (pt 16 64)(pt 16 16)(line_width 1))
		(line (pt 16 42)(pt 22 48)(line_width 1))
		(line (pt 22 48)(pt 16 54)(line_width 1))
	)
)
(symbol
	(rect 3112 440 3256 520)
	(text "PS_DFF_14" (rect 37 1 120 17)(font "Arial" (font_size 10)))
	(text "inst32" (rect 8 64 37 76)(font "Arial" ))
	(port
		(pt 0 32)
		(input)
		(text "data[13..0]" (rect 0 0 60 14)(font "Arial" (font_size 8)))
		(text "data[13..0]" (rect 20 26 80 40)(font "Arial" (font_size 8)))
		(line (pt 0 32)(pt 16 32)(line_width 3))
	)
	(port
		(pt 0 48)
		(input)
		(text "clock" (rect 0 0 29 14)(font "Arial" (font_size 8)))
		(text "clock" (rect 26 42 55 56)(font "Arial" (font_size 8)))
		(line (pt 0 48)(pt 16 48)(line_width 1))
	)
	(port
		(pt 144 48)
		(output)
		(text "q[13..0]" (rect 0 0 42 14)(font "Arial" (font_size 8)))
		(text "q[13..0]" (rect 89 42 131 56)(font "Arial" (font_size 8)))
		(line (pt 144 48)(pt 128 48)(line_width 3))
	)
	(drawing
		(text "DFF" (rect 109 17 131 29)(font "Arial" ))
		(line (pt 16 16)(pt 128 16)(line_width 1))
		(line (pt 128 16)(pt 128 64)(line_width 1))
		(line (pt 128 64)(pt 16 64)(line_width 1))
		(line (pt 16 64)(pt 16 16)(line_width 1))
		(line (pt 16 42)(pt 22 48)(line_width 1))
		(line (pt 22 48)(pt 16 54)(line_width 1))
	)
)
(symbol
	(rect 232 320 376 400)
	(text "PS_DFF_14" (rect 37 1 120 17)(font "Arial" (font_size 10)))
	(text "inst33" (rect 8 64 37 76)(font "Arial" ))
	(port
		(pt 0 32)
		(input)
		(text "data[13..0]" (rect 0 0 60 14)(font "Arial" (font_size 8)))
		(text "data[13..0]" (rect 20 26 80 40)(font "Arial" (font_size 8)))
		(line (pt 0 32)(pt 16 32)(line_width 3))
	)
	(port
		(pt 0 48)
		(input)
		(text "clock" (rect 0 0 29 14)(font "Arial" (font_size 8)))
		(text "clock" (rect 26 42 55 56)(font "Arial" (font_size 8)))
		(line (pt 0 48)(pt 16 48)(line_width 1))
	)
	(port
		(pt 144 48)
		(output)
		(text "q[13..0]" (rect 0 0 42 14)(font "Arial" (font_size 8)))
		(text "q[13..0]" (rect 89 42 131 56)(font "Arial" (font_size 8)))
		(line (pt 144 48)(pt 128 48)(line_width 3))
	)
	(drawing
		(text "DFF" (rect 109 17 131 29)(font "Arial" ))
		(line (pt 16 16)(pt 128 16)(line_width 1))
		(line (pt 128 16)(pt 128 64)(line_width 1))
		(line (pt 128 64)(pt 16 64)(line_width 1))
		(line (pt 16 64)(pt 16 16)(line_width 1))
		(line (pt 16 42)(pt 22 48)(line_width 1))
		(line (pt 22 48)(pt 16 54)(line_width 1))
	)
)
(symbol
	(rect 424 336 568 416)
	(text "PS_DFF_14" (rect 37 1 120 17)(font "Arial" (font_size 10)))
	(text "inst34" (rect 8 64 37 76)(font "Arial" ))
	(port
		(pt 0 32)
		(input)
		(text "data[13..0]" (rect 0 0 60 14)(font "Arial" (font_size 8)))
		(text "data[13..0]" (rect 20 26 80 40)(font "Arial" (font_size 8)))
		(line (pt 0 32)(pt 16 32)(line_width 3))
	)
	(port
		(pt 0 48)
		(input)
		(text "clock" (rect 0 0 29 14)(font "Arial" (font_size 8)))
		(text "clock" (rect 26 42 55 56)(font "Arial" (font_size 8)))
		(line (pt 0 48)(pt 16 48)(line_width 1))
	)
	(port
		(pt 144 48)
		(output)
		(text "q[13..0]" (rect 0 0 42 14)(font "Arial" (font_size 8)))
		(text "q[13..0]" (rect 89 42 131 56)(font "Arial" (font_size 8)))
		(line (pt 144 48)(pt 128 48)(line_width 3))
	)
	(drawing
		(text "DFF" (rect 109 17 131 29)(font "Arial" ))
		(line (pt 16 16)(pt 128 16)(line_width 1))
		(line (pt 128 16)(pt 128 64)(line_width 1))
		(line (pt 128 64)(pt 16 64)(line_width 1))
		(line (pt 16 64)(pt 16 16)(line_width 1))
		(line (pt 16 42)(pt 22 48)(line_width 1))
		(line (pt 22 48)(pt 16 54)(line_width 1))
	)
)
(symbol
	(rect 616 352 760 432)
	(text "PS_DFF_14" (rect 37 1 120 17)(font "Arial" (font_size 10)))
	(text "inst35" (rect 8 64 37 76)(font "Arial" ))
	(port
		(pt 0 32)
		(input)
		(text "data[13..0]" (rect 0 0 60 14)(font "Arial" (font_size 8)))
		(text "data[13..0]" (rect 20 26 80 40)(font "Arial" (font_size 8)))
		(line (pt 0 32)(pt 16 32)(line_width 3))
	)
	(port
		(pt 0 48)
		(input)
		(text "clock" (rect 0 0 29 14)(font "Arial" (font_size 8)))
		(text "clock" (rect 26 42 55 56)(font "Arial" (font_size 8)))
		(line (pt 0 48)(pt 16 48)(line_width 1))
	)
	(port
		(pt 144 48)
		(output)
		(text "q[13..0]" (rect 0 0 42 14)(font "Arial" (font_size 8)))
		(text "q[13..0]" (rect 89 42 131 56)(font "Arial" (font_size 8)))
		(line (pt 144 48)(pt 128 48)(line_width 3))
	)
	(drawing
		(text "DFF" (rect 109 17 131 29)(font "Arial" ))
		(line (pt 16 16)(pt 128 16)(line_width 1))
		(line (pt 128 16)(pt 128 64)(line_width 1))
		(line (pt 128 64)(pt 16 64)(line_width 1))
		(line (pt 16 64)(pt 16 16)(line_width 1))
		(line (pt 16 42)(pt 22 48)(line_width 1))
		(line (pt 22 48)(pt 16 54)(line_width 1))
	)
)
(symbol
	(rect 808 368 952 448)
	(text "PS_DFF_14" (rect 37 1 120 17)(font "Arial" (font_size 10)))
	(text "inst36" (rect 8 64 37 76)(font "Arial" ))
	(port
		(pt 0 32)
		(input)
		(text "data[13..0]" (rect 0 0 60 14)(font "Arial" (font_size 8)))
		(text "data[13..0]" (rect 20 26 80 40)(font "Arial" (font_size 8)))
		(line (pt 0 32)(pt 16 32)(line_width 3))
	)
	(port
		(pt 0 48)
		(input)
		(text "clock" (rect 0 0 29 14)(font "Arial" (font_size 8)))
		(text "clock" (rect 26 42 55 56)(font "Arial" (font_size 8)))
		(line (pt 0 48)(pt 16 48)(line_width 1))
	)
	(port
		(pt 144 48)
		(output)
		(text "q[13..0]" (rect 0 0 42 14)(font "Arial" (font_size 8)))
		(text "q[13..0]" (rect 89 42 131 56)(font "Arial" (font_size 8)))
		(line (pt 144 48)(pt 128 48)(line_width 3))
	)
	(drawing
		(text "DFF" (rect 109 17 131 29)(font "Arial" ))
		(line (pt 16 16)(pt 128 16)(line_width 1))
		(line (pt 128 16)(pt 128 64)(line_width 1))
		(line (pt 128 64)(pt 16 64)(line_width 1))
		(line (pt 16 64)(pt 16 16)(line_width 1))
		(line (pt 16 42)(pt 22 48)(line_width 1))
		(line (pt 22 48)(pt 16 54)(line_width 1))
	)
)
(symbol
	(rect 1000 384 1144 464)
	(text "PS_DFF_14" (rect 37 1 120 17)(font "Arial" (font_size 10)))
	(text "inst37" (rect 8 64 37 76)(font "Arial" ))
	(port
		(pt 0 32)
		(input)
		(text "data[13..0]" (rect 0 0 60 14)(font "Arial" (font_size 8)))
		(text "data[13..0]" (rect 20 26 80 40)(font "Arial" (font_size 8)))
		(line (pt 0 32)(pt 16 32)(line_width 3))
	)
	(port
		(pt 0 48)
		(input)
		(text "clock" (rect 0 0 29 14)(font "Arial" (font_size 8)))
		(text "clock" (rect 26 42 55 56)(font "Arial" (font_size 8)))
		(line (pt 0 48)(pt 16 48)(line_width 1))
	)
	(port
		(pt 144 48)
		(output)
		(text "q[13..0]" (rect 0 0 42 14)(font "Arial" (font_size 8)))
		(text "q[13..0]" (rect 89 42 131 56)(font "Arial" (font_size 8)))
		(line (pt 144 48)(pt 128 48)(line_width 3))
	)
	(drawing
		(text "DFF" (rect 109 17 131 29)(font "Arial" ))
		(line (pt 16 16)(pt 128 16)(line_width 1))
		(line (pt 128 16)(pt 128 64)(line_width 1))
		(line (pt 128 64)(pt 16 64)(line_width 1))
		(line (pt 16 64)(pt 16 16)(line_width 1))
		(line (pt 16 42)(pt 22 48)(line_width 1))
		(line (pt 22 48)(pt 16 54)(line_width 1))
	)
)
(symbol
	(rect 1192 400 1336 480)
	(text "PS_DFF_14" (rect 37 1 120 17)(font "Arial" (font_size 10)))
	(text "inst38" (rect 8 64 37 76)(font "Arial" ))
	(port
		(pt 0 32)
		(input)
		(text "data[13..0]" (rect 0 0 60 14)(font "Arial" (font_size 8)))
		(text "data[13..0]" (rect 20 26 80 40)(font "Arial" (font_size 8)))
		(line (pt 0 32)(pt 16 32)(line_width 3))
	)
	(port
		(pt 0 48)
		(input)
		(text "clock" (rect 0 0 29 14)(font "Arial" (font_size 8)))
		(text "clock" (rect 26 42 55 56)(font "Arial" (font_size 8)))
		(line (pt 0 48)(pt 16 48)(line_width 1))
	)
	(port
		(pt 144 48)
		(output)
		(text "q[13..0]" (rect 0 0 42 14)(font "Arial" (font_size 8)))
		(text "q[13..0]" (rect 89 42 131 56)(font "Arial" (font_size 8)))
		(line (pt 144 48)(pt 128 48)(line_width 3))
	)
	(drawing
		(text "DFF" (rect 109 17 131 29)(font "Arial" ))
		(line (pt 16 16)(pt 128 16)(line_width 1))
		(line (pt 128 16)(pt 128 64)(line_width 1))
		(line (pt 128 64)(pt 16 64)(line_width 1))
		(line (pt 16 64)(pt 16 16)(line_width 1))
		(line (pt 16 42)(pt 22 48)(line_width 1))
		(line (pt 22 48)(pt 16 54)(line_width 1))
	)
)
(symbol
	(rect 1384 416 1528 496)
	(text "PS_DFF_14" (rect 37 1 120 17)(font "Arial" (font_size 10)))
	(text "inst39" (rect 8 64 37 76)(font "Arial" ))
	(port
		(pt 0 32)
		(input)
		(text "data[13..0]" (rect 0 0 60 14)(font "Arial" (font_size 8)))
		(text "data[13..0]" (rect 20 26 80 40)(font "Arial" (font_size 8)))
		(line (pt 0 32)(pt 16 32)(line_width 3))
	)
	(port
		(pt 0 48)
		(input)
		(text "clock" (rect 0 0 29 14)(font "Arial" (font_size 8)))
		(text "clock" (rect 26 42 55 56)(font "Arial" (font_size 8)))
		(line (pt 0 48)(pt 16 48)(line_width 1))
	)
	(port
		(pt 144 48)
		(output)
		(text "q[13..0]" (rect 0 0 42 14)(font "Arial" (font_size 8)))
		(text "q[13..0]" (rect 89 42 131 56)(font "Arial" (font_size 8)))
		(line (pt 144 48)(pt 128 48)(line_width 3))
	)
	(drawing
		(text "DFF" (rect 109 17 131 29)(font "Arial" ))
		(line (pt 16 16)(pt 128 16)(line_width 1))
		(line (pt 128 16)(pt 128 64)(line_width 1))
		(line (pt 128 64)(pt 16 64)(line_width 1))
		(line (pt 16 64)(pt 16 16)(line_width 1))
		(line (pt 16 42)(pt 22 48)(line_width 1))
		(line (pt 22 48)(pt 16 54)(line_width 1))
	)
)
(symbol
	(rect 1576 432 1720 512)
	(text "PS_DFF_14" (rect 37 1 120 17)(font "Arial" (font_size 10)))
	(text "inst40" (rect 8 64 37 76)(font "Arial" ))
	(port
		(pt 0 32)
		(input)
		(text "data[13..0]" (rect 0 0 60 14)(font "Arial" (font_size 8)))
		(text "data[13..0]" (rect 20 26 80 40)(font "Arial" (font_size 8)))
		(line (pt 0 32)(pt 16 32)(line_width 3))
	)
	(port
		(pt 0 48)
		(input)
		(text "clock" (rect 0 0 29 14)(font "Arial" (font_size 8)))
		(text "clock" (rect 26 42 55 56)(font "Arial" (font_size 8)))
		(line (pt 0 48)(pt 16 48)(line_width 1))
	)
	(port
		(pt 144 48)
		(output)
		(text "q[13..0]" (rect 0 0 42 14)(font "Arial" (font_size 8)))
		(text "q[13..0]" (rect 89 42 131 56)(font "Arial" (font_size 8)))
		(line (pt 144 48)(pt 128 48)(line_width 3))
	)
	(drawing
		(text "DFF" (rect 109 17 131 29)(font "Arial" ))
		(line (pt 16 16)(pt 128 16)(line_width 1))
		(line (pt 128 16)(pt 128 64)(line_width 1))
		(line (pt 128 64)(pt 16 64)(line_width 1))
		(line (pt 16 64)(pt 16 16)(line_width 1))
		(line (pt 16 42)(pt 22 48)(line_width 1))
		(line (pt 22 48)(pt 16 54)(line_width 1))
	)
)
(symbol
	(rect 1768 448 1912 528)
	(text "PS_DFF_14" (rect 37 1 120 17)(font "Arial" (font_size 10)))
	(text "inst41" (rect 8 64 37 76)(font "Arial" ))
	(port
		(pt 0 32)
		(input)
		(text "data[13..0]" (rect 0 0 60 14)(font "Arial" (font_size 8)))
		(text "data[13..0]" (rect 20 26 80 40)(font "Arial" (font_size 8)))
		(line (pt 0 32)(pt 16 32)(line_width 3))
	)
	(port
		(pt 0 48)
		(input)
		(text "clock" (rect 0 0 29 14)(font "Arial" (font_size 8)))
		(text "clock" (rect 26 42 55 56)(font "Arial" (font_size 8)))
		(line (pt 0 48)(pt 16 48)(line_width 1))
	)
	(port
		(pt 144 48)
		(output)
		(text "q[13..0]" (rect 0 0 42 14)(font "Arial" (font_size 8)))
		(text "q[13..0]" (rect 89 42 131 56)(font "Arial" (font_size 8)))
		(line (pt 144 48)(pt 128 48)(line_width 3))
	)
	(drawing
		(text "DFF" (rect 109 17 131 29)(font "Arial" ))
		(line (pt 16 16)(pt 128 16)(line_width 1))
		(line (pt 128 16)(pt 128 64)(line_width 1))
		(line (pt 128 64)(pt 16 64)(line_width 1))
		(line (pt 16 64)(pt 16 16)(line_width 1))
		(line (pt 16 42)(pt 22 48)(line_width 1))
		(line (pt 22 48)(pt 16 54)(line_width 1))
	)
)
(symbol
	(rect 1960 464 2104 544)
	(text "PS_DFF_14" (rect 37 1 120 17)(font "Arial" (font_size 10)))
	(text "inst42" (rect 8 64 37 76)(font "Arial" ))
	(port
		(pt 0 32)
		(input)
		(text "data[13..0]" (rect 0 0 60 14)(font "Arial" (font_size 8)))
		(text "data[13..0]" (rect 20 26 80 40)(font "Arial" (font_size 8)))
		(line (pt 0 32)(pt 16 32)(line_width 3))
	)
	(port
		(pt 0 48)
		(input)
		(text "clock" (rect 0 0 29 14)(font "Arial" (font_size 8)))
		(text "clock" (rect 26 42 55 56)(font "Arial" (font_size 8)))
		(line (pt 0 48)(pt 16 48)(line_width 1))
	)
	(port
		(pt 144 48)
		(output)
		(text "q[13..0]" (rect 0 0 42 14)(font "Arial" (font_size 8)))
		(text "q[13..0]" (rect 89 42 131 56)(font "Arial" (font_size 8)))
		(line (pt 144 48)(pt 128 48)(line_width 3))
	)
	(drawing
		(text "DFF" (rect 109 17 131 29)(font "Arial" ))
		(line (pt 16 16)(pt 128 16)(line_width 1))
		(line (pt 128 16)(pt 128 64)(line_width 1))
		(line (pt 128 64)(pt 16 64)(line_width 1))
		(line (pt 16 64)(pt 16 16)(line_width 1))
		(line (pt 16 42)(pt 22 48)(line_width 1))
		(line (pt 22 48)(pt 16 54)(line_width 1))
	)
)
(symbol
	(rect 2152 480 2296 560)
	(text "PS_DFF_14" (rect 37 1 120 17)(font "Arial" (font_size 10)))
	(text "inst43" (rect 8 64 37 76)(font "Arial" ))
	(port
		(pt 0 32)
		(input)
		(text "data[13..0]" (rect 0 0 60 14)(font "Arial" (font_size 8)))
		(text "data[13..0]" (rect 20 26 80 40)(font "Arial" (font_size 8)))
		(line (pt 0 32)(pt 16 32)(line_width 3))
	)
	(port
		(pt 0 48)
		(input)
		(text "clock" (rect 0 0 29 14)(font "Arial" (font_size 8)))
		(text "clock" (rect 26 42 55 56)(font "Arial" (font_size 8)))
		(line (pt 0 48)(pt 16 48)(line_width 1))
	)
	(port
		(pt 144 48)
		(output)
		(text "q[13..0]" (rect 0 0 42 14)(font "Arial" (font_size 8)))
		(text "q[13..0]" (rect 89 42 131 56)(font "Arial" (font_size 8)))
		(line (pt 144 48)(pt 128 48)(line_width 3))
	)
	(drawing
		(text "DFF" (rect 109 17 131 29)(font "Arial" ))
		(line (pt 16 16)(pt 128 16)(line_width 1))
		(line (pt 128 16)(pt 128 64)(line_width 1))
		(line (pt 128 64)(pt 16 64)(line_width 1))
		(line (pt 16 64)(pt 16 16)(line_width 1))
		(line (pt 16 42)(pt 22 48)(line_width 1))
		(line (pt 22 48)(pt 16 54)(line_width 1))
	)
)
(symbol
	(rect 2344 496 2488 576)
	(text "PS_DFF_14" (rect 37 1 120 17)(font "Arial" (font_size 10)))
	(text "inst44" (rect 8 64 37 76)(font "Arial" ))
	(port
		(pt 0 32)
		(input)
		(text "data[13..0]" (rect 0 0 60 14)(font "Arial" (font_size 8)))
		(text "data[13..0]" (rect 20 26 80 40)(font "Arial" (font_size 8)))
		(line (pt 0 32)(pt 16 32)(line_width 3))
	)
	(port
		(pt 0 48)
		(input)
		(text "clock" (rect 0 0 29 14)(font "Arial" (font_size 8)))
		(text "clock" (rect 26 42 55 56)(font "Arial" (font_size 8)))
		(line (pt 0 48)(pt 16 48)(line_width 1))
	)
	(port
		(pt 144 48)
		(output)
		(text "q[13..0]" (rect 0 0 42 14)(font "Arial" (font_size 8)))
		(text "q[13..0]" (rect 89 42 131 56)(font "Arial" (font_size 8)))
		(line (pt 144 48)(pt 128 48)(line_width 3))
	)
	(drawing
		(text "DFF" (rect 109 17 131 29)(font "Arial" ))
		(line (pt 16 16)(pt 128 16)(line_width 1))
		(line (pt 128 16)(pt 128 64)(line_width 1))
		(line (pt 128 64)(pt 16 64)(line_width 1))
		(line (pt 16 64)(pt 16 16)(line_width 1))
		(line (pt 16 42)(pt 22 48)(line_width 1))
		(line (pt 22 48)(pt 16 54)(line_width 1))
	)
)
(symbol
	(rect 2536 512 2680 592)
	(text "PS_DFF_14" (rect 37 1 120 17)(font "Arial" (font_size 10)))
	(text "inst45" (rect 8 64 37 76)(font "Arial" ))
	(port
		(pt 0 32)
		(input)
		(text "data[13..0]" (rect 0 0 60 14)(font "Arial" (font_size 8)))
		(text "data[13..0]" (rect 20 26 80 40)(font "Arial" (font_size 8)))
		(line (pt 0 32)(pt 16 32)(line_width 3))
	)
	(port
		(pt 0 48)
		(input)
		(text "clock" (rect 0 0 29 14)(font "Arial" (font_size 8)))
		(text "clock" (rect 26 42 55 56)(font "Arial" (font_size 8)))
		(line (pt 0 48)(pt 16 48)(line_width 1))
	)
	(port
		(pt 144 48)
		(output)
		(text "q[13..0]" (rect 0 0 42 14)(font "Arial" (font_size 8)))
		(text "q[13..0]" (rect 89 42 131 56)(font "Arial" (font_size 8)))
		(line (pt 144 48)(pt 128 48)(line_width 3))
	)
	(drawing
		(text "DFF" (rect 109 17 131 29)(font "Arial" ))
		(line (pt 16 16)(pt 128 16)(line_width 1))
		(line (pt 128 16)(pt 128 64)(line_width 1))
		(line (pt 128 64)(pt 16 64)(line_width 1))
		(line (pt 16 64)(pt 16 16)(line_width 1))
		(line (pt 16 42)(pt 22 48)(line_width 1))
		(line (pt 22 48)(pt 16 54)(line_width 1))
	)
)
(symbol
	(rect 2728 528 2872 608)
	(text "PS_DFF_14" (rect 37 1 120 17)(font "Arial" (font_size 10)))
	(text "inst46" (rect 8 64 37 76)(font "Arial" ))
	(port
		(pt 0 32)
		(input)
		(text "data[13..0]" (rect 0 0 60 14)(font "Arial" (font_size 8)))
		(text "data[13..0]" (rect 20 26 80 40)(font "Arial" (font_size 8)))
		(line (pt 0 32)(pt 16 32)(line_width 3))
	)
	(port
		(pt 0 48)
		(input)
		(text "clock" (rect 0 0 29 14)(font "Arial" (font_size 8)))
		(text "clock" (rect 26 42 55 56)(font "Arial" (font_size 8)))
		(line (pt 0 48)(pt 16 48)(line_width 1))
	)
	(port
		(pt 144 48)
		(output)
		(text "q[13..0]" (rect 0 0 42 14)(font "Arial" (font_size 8)))
		(text "q[13..0]" (rect 89 42 131 56)(font "Arial" (font_size 8)))
		(line (pt 144 48)(pt 128 48)(line_width 3))
	)
	(drawing
		(text "DFF" (rect 109 17 131 29)(font "Arial" ))
		(line (pt 16 16)(pt 128 16)(line_width 1))
		(line (pt 128 16)(pt 128 64)(line_width 1))
		(line (pt 128 64)(pt 16 64)(line_width 1))
		(line (pt 16 64)(pt 16 16)(line_width 1))
		(line (pt 16 42)(pt 22 48)(line_width 1))
		(line (pt 22 48)(pt 16 54)(line_width 1))
	)
)
(symbol
	(rect 2920 544 3064 624)
	(text "PS_DFF_14" (rect 37 1 120 17)(font "Arial" (font_size 10)))
	(text "inst47" (rect 8 64 37 76)(font "Arial" ))
	(port
		(pt 0 32)
		(input)
		(text "data[13..0]" (rect 0 0 60 14)(font "Arial" (font_size 8)))
		(text "data[13..0]" (rect 20 26 80 40)(font "Arial" (font_size 8)))
		(line (pt 0 32)(pt 16 32)(line_width 3))
	)
	(port
		(pt 0 48)
		(input)
		(text "clock" (rect 0 0 29 14)(font "Arial" (font_size 8)))
		(text "clock" (rect 26 42 55 56)(font "Arial" (font_size 8)))
		(line (pt 0 48)(pt 16 48)(line_width 1))
	)
	(port
		(pt 144 48)
		(output)
		(text "q[13..0]" (rect 0 0 42 14)(font "Arial" (font_size 8)))
		(text "q[13..0]" (rect 89 42 131 56)(font "Arial" (font_size 8)))
		(line (pt 144 48)(pt 128 48)(line_width 3))
	)
	(drawing
		(text "DFF" (rect 109 17 131 29)(font "Arial" ))
		(line (pt 16 16)(pt 128 16)(line_width 1))
		(line (pt 128 16)(pt 128 64)(line_width 1))
		(line (pt 128 64)(pt 16 64)(line_width 1))
		(line (pt 16 64)(pt 16 16)(line_width 1))
		(line (pt 16 42)(pt 22 48)(line_width 1))
		(line (pt 22 48)(pt 16 54)(line_width 1))
	)
)
(symbol
	(rect 3112 560 3256 640)
	(text "PS_DFF_14" (rect 37 1 120 17)(font "Arial" (font_size 10)))
	(text "inst48" (rect 8 64 37 76)(font "Arial" ))
	(port
		(pt 0 32)
		(input)
		(text "data[13..0]" (rect 0 0 60 14)(font "Arial" (font_size 8)))
		(text "data[13..0]" (rect 20 26 80 40)(font "Arial" (font_size 8)))
		(line (pt 0 32)(pt 16 32)(line_width 3))
	)
	(port
		(pt 0 48)
		(input)
		(text "clock" (rect 0 0 29 14)(font "Arial" (font_size 8)))
		(text "clock" (rect 26 42 55 56)(font "Arial" (font_size 8)))
		(line (pt 0 48)(pt 16 48)(line_width 1))
	)
	(port
		(pt 144 48)
		(output)
		(text "q[13..0]" (rect 0 0 42 14)(font "Arial" (font_size 8)))
		(text "q[13..0]" (rect 89 42 131 56)(font "Arial" (font_size 8)))
		(line (pt 144 48)(pt 128 48)(line_width 3))
	)
	(drawing
		(text "DFF" (rect 109 17 131 29)(font "Arial" ))
		(line (pt 16 16)(pt 128 16)(line_width 1))
		(line (pt 128 16)(pt 128 64)(line_width 1))
		(line (pt 128 64)(pt 16 64)(line_width 1))
		(line (pt 16 64)(pt 16 16)(line_width 1))
		(line (pt 16 42)(pt 22 48)(line_width 1))
		(line (pt 22 48)(pt 16 54)(line_width 1))
	)
)
(symbol
	(rect 232 440 376 520)
	(text "PS_DFF_14" (rect 37 1 120 17)(font "Arial" (font_size 10)))
	(text "inst49" (rect 8 64 37 76)(font "Arial" ))
	(port
		(pt 0 32)
		(input)
		(text "data[13..0]" (rect 0 0 60 14)(font "Arial" (font_size 8)))
		(text "data[13..0]" (rect 20 26 80 40)(font "Arial" (font_size 8)))
		(line (pt 0 32)(pt 16 32)(line_width 3))
	)
	(port
		(pt 0 48)
		(input)
		(text "clock" (rect 0 0 29 14)(font "Arial" (font_size 8)))
		(text "clock" (rect 26 42 55 56)(font "Arial" (font_size 8)))
		(line (pt 0 48)(pt 16 48)(line_width 1))
	)
	(port
		(pt 144 48)
		(output)
		(text "q[13..0]" (rect 0 0 42 14)(font "Arial" (font_size 8)))
		(text "q[13..0]" (rect 89 42 131 56)(font "Arial" (font_size 8)))
		(line (pt 144 48)(pt 128 48)(line_width 3))
	)
	(drawing
		(text "DFF" (rect 109 17 131 29)(font "Arial" ))
		(line (pt 16 16)(pt 128 16)(line_width 1))
		(line (pt 128 16)(pt 128 64)(line_width 1))
		(line (pt 128 64)(pt 16 64)(line_width 1))
		(line (pt 16 64)(pt 16 16)(line_width 1))
		(line (pt 16 42)(pt 22 48)(line_width 1))
		(line (pt 22 48)(pt 16 54)(line_width 1))
	)
)
(symbol
	(rect 424 456 568 536)
	(text "PS_DFF_14" (rect 37 1 120 17)(font "Arial" (font_size 10)))
	(text "inst50" (rect 8 64 37 76)(font "Arial" ))
	(port
		(pt 0 32)
		(input)
		(text "data[13..0]" (rect 0 0 60 14)(font "Arial" (font_size 8)))
		(text "data[13..0]" (rect 20 26 80 40)(font "Arial" (font_size 8)))
		(line (pt 0 32)(pt 16 32)(line_width 3))
	)
	(port
		(pt 0 48)
		(input)
		(text "clock" (rect 0 0 29 14)(font "Arial" (font_size 8)))
		(text "clock" (rect 26 42 55 56)(font "Arial" (font_size 8)))
		(line (pt 0 48)(pt 16 48)(line_width 1))
	)
	(port
		(pt 144 48)
		(output)
		(text "q[13..0]" (rect 0 0 42 14)(font "Arial" (font_size 8)))
		(text "q[13..0]" (rect 89 42 131 56)(font "Arial" (font_size 8)))
		(line (pt 144 48)(pt 128 48)(line_width 3))
	)
	(drawing
		(text "DFF" (rect 109 17 131 29)(font "Arial" ))
		(line (pt 16 16)(pt 128 16)(line_width 1))
		(line (pt 128 16)(pt 128 64)(line_width 1))
		(line (pt 128 64)(pt 16 64)(line_width 1))
		(line (pt 16 64)(pt 16 16)(line_width 1))
		(line (pt 16 42)(pt 22 48)(line_width 1))
		(line (pt 22 48)(pt 16 54)(line_width 1))
	)
)
(symbol
	(rect 616 472 760 552)
	(text "PS_DFF_14" (rect 37 1 120 17)(font "Arial" (font_size 10)))
	(text "inst51" (rect 8 64 37 76)(font "Arial" ))
	(port
		(pt 0 32)
		(input)
		(text "data[13..0]" (rect 0 0 60 14)(font "Arial" (font_size 8)))
		(text "data[13..0]" (rect 20 26 80 40)(font "Arial" (font_size 8)))
		(line (pt 0 32)(pt 16 32)(line_width 3))
	)
	(port
		(pt 0 48)
		(input)
		(text "clock" (rect 0 0 29 14)(font "Arial" (font_size 8)))
		(text "clock" (rect 26 42 55 56)(font "Arial" (font_size 8)))
		(line (pt 0 48)(pt 16 48)(line_width 1))
	)
	(port
		(pt 144 48)
		(output)
		(text "q[13..0]" (rect 0 0 42 14)(font "Arial" (font_size 8)))
		(text "q[13..0]" (rect 89 42 131 56)(font "Arial" (font_size 8)))
		(line (pt 144 48)(pt 128 48)(line_width 3))
	)
	(drawing
		(text "DFF" (rect 109 17 131 29)(font "Arial" ))
		(line (pt 16 16)(pt 128 16)(line_width 1))
		(line (pt 128 16)(pt 128 64)(line_width 1))
		(line (pt 128 64)(pt 16 64)(line_width 1))
		(line (pt 16 64)(pt 16 16)(line_width 1))
		(line (pt 16 42)(pt 22 48)(line_width 1))
		(line (pt 22 48)(pt 16 54)(line_width 1))
	)
)
(symbol
	(rect 808 488 952 568)
	(text "PS_DFF_14" (rect 37 1 120 17)(font "Arial" (font_size 10)))
	(text "inst52" (rect 8 64 37 76)(font "Arial" ))
	(port
		(pt 0 32)
		(input)
		(text "data[13..0]" (rect 0 0 60 14)(font "Arial" (font_size 8)))
		(text "data[13..0]" (rect 20 26 80 40)(font "Arial" (font_size 8)))
		(line (pt 0 32)(pt 16 32)(line_width 3))
	)
	(port
		(pt 0 48)
		(input)
		(text "clock" (rect 0 0 29 14)(font "Arial" (font_size 8)))
		(text "clock" (rect 26 42 55 56)(font "Arial" (font_size 8)))
		(line (pt 0 48)(pt 16 48)(line_width 1))
	)
	(port
		(pt 144 48)
		(output)
		(text "q[13..0]" (rect 0 0 42 14)(font "Arial" (font_size 8)))
		(text "q[13..0]" (rect 89 42 131 56)(font "Arial" (font_size 8)))
		(line (pt 144 48)(pt 128 48)(line_width 3))
	)
	(drawing
		(text "DFF" (rect 109 17 131 29)(font "Arial" ))
		(line (pt 16 16)(pt 128 16)(line_width 1))
		(line (pt 128 16)(pt 128 64)(line_width 1))
		(line (pt 128 64)(pt 16 64)(line_width 1))
		(line (pt 16 64)(pt 16 16)(line_width 1))
		(line (pt 16 42)(pt 22 48)(line_width 1))
		(line (pt 22 48)(pt 16 54)(line_width 1))
	)
)
(symbol
	(rect 1000 504 1144 584)
	(text "PS_DFF_14" (rect 37 1 120 17)(font "Arial" (font_size 10)))
	(text "inst53" (rect 8 64 37 76)(font "Arial" ))
	(port
		(pt 0 32)
		(input)
		(text "data[13..0]" (rect 0 0 60 14)(font "Arial" (font_size 8)))
		(text "data[13..0]" (rect 20 26 80 40)(font "Arial" (font_size 8)))
		(line (pt 0 32)(pt 16 32)(line_width 3))
	)
	(port
		(pt 0 48)
		(input)
		(text "clock" (rect 0 0 29 14)(font "Arial" (font_size 8)))
		(text "clock" (rect 26 42 55 56)(font "Arial" (font_size 8)))
		(line (pt 0 48)(pt 16 48)(line_width 1))
	)
	(port
		(pt 144 48)
		(output)
		(text "q[13..0]" (rect 0 0 42 14)(font "Arial" (font_size 8)))
		(text "q[13..0]" (rect 89 42 131 56)(font "Arial" (font_size 8)))
		(line (pt 144 48)(pt 128 48)(line_width 3))
	)
	(drawing
		(text "DFF" (rect 109 17 131 29)(font "Arial" ))
		(line (pt 16 16)(pt 128 16)(line_width 1))
		(line (pt 128 16)(pt 128 64)(line_width 1))
		(line (pt 128 64)(pt 16 64)(line_width 1))
		(line (pt 16 64)(pt 16 16)(line_width 1))
		(line (pt 16 42)(pt 22 48)(line_width 1))
		(line (pt 22 48)(pt 16 54)(line_width 1))
	)
)
(symbol
	(rect 1192 520 1336 600)
	(text "PS_DFF_14" (rect 37 1 120 17)(font "Arial" (font_size 10)))
	(text "inst54" (rect 8 64 37 76)(font "Arial" ))
	(port
		(pt 0 32)
		(input)
		(text "data[13..0]" (rect 0 0 60 14)(font "Arial" (font_size 8)))
		(text "data[13..0]" (rect 20 26 80 40)(font "Arial" (font_size 8)))
		(line (pt 0 32)(pt 16 32)(line_width 3))
	)
	(port
		(pt 0 48)
		(input)
		(text "clock" (rect 0 0 29 14)(font "Arial" (font_size 8)))
		(text "clock" (rect 26 42 55 56)(font "Arial" (font_size 8)))
		(line (pt 0 48)(pt 16 48)(line_width 1))
	)
	(port
		(pt 144 48)
		(output)
		(text "q[13..0]" (rect 0 0 42 14)(font "Arial" (font_size 8)))
		(text "q[13..0]" (rect 89 42 131 56)(font "Arial" (font_size 8)))
		(line (pt 144 48)(pt 128 48)(line_width 3))
	)
	(drawing
		(text "DFF" (rect 109 17 131 29)(font "Arial" ))
		(line (pt 16 16)(pt 128 16)(line_width 1))
		(line (pt 128 16)(pt 128 64)(line_width 1))
		(line (pt 128 64)(pt 16 64)(line_width 1))
		(line (pt 16 64)(pt 16 16)(line_width 1))
		(line (pt 16 42)(pt 22 48)(line_width 1))
		(line (pt 22 48)(pt 16 54)(line_width 1))
	)
)
(symbol
	(rect 1384 536 1528 616)
	(text "PS_DFF_14" (rect 37 1 120 17)(font "Arial" (font_size 10)))
	(text "inst55" (rect 8 64 37 76)(font "Arial" ))
	(port
		(pt 0 32)
		(input)
		(text "data[13..0]" (rect 0 0 60 14)(font "Arial" (font_size 8)))
		(text "data[13..0]" (rect 20 26 80 40)(font "Arial" (font_size 8)))
		(line (pt 0 32)(pt 16 32)(line_width 3))
	)
	(port
		(pt 0 48)
		(input)
		(text "clock" (rect 0 0 29 14)(font "Arial" (font_size 8)))
		(text "clock" (rect 26 42 55 56)(font "Arial" (font_size 8)))
		(line (pt 0 48)(pt 16 48)(line_width 1))
	)
	(port
		(pt 144 48)
		(output)
		(text "q[13..0]" (rect 0 0 42 14)(font "Arial" (font_size 8)))
		(text "q[13..0]" (rect 89 42 131 56)(font "Arial" (font_size 8)))
		(line (pt 144 48)(pt 128 48)(line_width 3))
	)
	(drawing
		(text "DFF" (rect 109 17 131 29)(font "Arial" ))
		(line (pt 16 16)(pt 128 16)(line_width 1))
		(line (pt 128 16)(pt 128 64)(line_width 1))
		(line (pt 128 64)(pt 16 64)(line_width 1))
		(line (pt 16 64)(pt 16 16)(line_width 1))
		(line (pt 16 42)(pt 22 48)(line_width 1))
		(line (pt 22 48)(pt 16 54)(line_width 1))
	)
)
(symbol
	(rect 1576 552 1720 632)
	(text "PS_DFF_14" (rect 37 1 120 17)(font "Arial" (font_size 10)))
	(text "inst56" (rect 8 64 37 76)(font "Arial" ))
	(port
		(pt 0 32)
		(input)
		(text "data[13..0]" (rect 0 0 60 14)(font "Arial" (font_size 8)))
		(text "data[13..0]" (rect 20 26 80 40)(font "Arial" (font_size 8)))
		(line (pt 0 32)(pt 16 32)(line_width 3))
	)
	(port
		(pt 0 48)
		(input)
		(text "clock" (rect 0 0 29 14)(font "Arial" (font_size 8)))
		(text "clock" (rect 26 42 55 56)(font "Arial" (font_size 8)))
		(line (pt 0 48)(pt 16 48)(line_width 1))
	)
	(port
		(pt 144 48)
		(output)
		(text "q[13..0]" (rect 0 0 42 14)(font "Arial" (font_size 8)))
		(text "q[13..0]" (rect 89 42 131 56)(font "Arial" (font_size 8)))
		(line (pt 144 48)(pt 128 48)(line_width 3))
	)
	(drawing
		(text "DFF" (rect 109 17 131 29)(font "Arial" ))
		(line (pt 16 16)(pt 128 16)(line_width 1))
		(line (pt 128 16)(pt 128 64)(line_width 1))
		(line (pt 128 64)(pt 16 64)(line_width 1))
		(line (pt 16 64)(pt 16 16)(line_width 1))
		(line (pt 16 42)(pt 22 48)(line_width 1))
		(line (pt 22 48)(pt 16 54)(line_width 1))
	)
)
(symbol
	(rect 1768 568 1912 648)
	(text "PS_DFF_14" (rect 37 1 120 17)(font "Arial" (font_size 10)))
	(text "inst57" (rect 8 64 37 76)(font "Arial" ))
	(port
		(pt 0 32)
		(input)
		(text "data[13..0]" (rect 0 0 60 14)(font "Arial" (font_size 8)))
		(text "data[13..0]" (rect 20 26 80 40)(font "Arial" (font_size 8)))
		(line (pt 0 32)(pt 16 32)(line_width 3))
	)
	(port
		(pt 0 48)
		(input)
		(text "clock" (rect 0 0 29 14)(font "Arial" (font_size 8)))
		(text "clock" (rect 26 42 55 56)(font "Arial" (font_size 8)))
		(line (pt 0 48)(pt 16 48)(line_width 1))
	)
	(port
		(pt 144 48)
		(output)
		(text "q[13..0]" (rect 0 0 42 14)(font "Arial" (font_size 8)))
		(text "q[13..0]" (rect 89 42 131 56)(font "Arial" (font_size 8)))
		(line (pt 144 48)(pt 128 48)(line_width 3))
	)
	(drawing
		(text "DFF" (rect 109 17 131 29)(font "Arial" ))
		(line (pt 16 16)(pt 128 16)(line_width 1))
		(line (pt 128 16)(pt 128 64)(line_width 1))
		(line (pt 128 64)(pt 16 64)(line_width 1))
		(line (pt 16 64)(pt 16 16)(line_width 1))
		(line (pt 16 42)(pt 22 48)(line_width 1))
		(line (pt 22 48)(pt 16 54)(line_width 1))
	)
)
(symbol
	(rect 1960 584 2104 664)
	(text "PS_DFF_14" (rect 37 1 120 17)(font "Arial" (font_size 10)))
	(text "inst58" (rect 8 64 37 76)(font "Arial" ))
	(port
		(pt 0 32)
		(input)
		(text "data[13..0]" (rect 0 0 60 14)(font "Arial" (font_size 8)))
		(text "data[13..0]" (rect 20 26 80 40)(font "Arial" (font_size 8)))
		(line (pt 0 32)(pt 16 32)(line_width 3))
	)
	(port
		(pt 0 48)
		(input)
		(text "clock" (rect 0 0 29 14)(font "Arial" (font_size 8)))
		(text "clock" (rect 26 42 55 56)(font "Arial" (font_size 8)))
		(line (pt 0 48)(pt 16 48)(line_width 1))
	)
	(port
		(pt 144 48)
		(output)
		(text "q[13..0]" (rect 0 0 42 14)(font "Arial" (font_size 8)))
		(text "q[13..0]" (rect 89 42 131 56)(font "Arial" (font_size 8)))
		(line (pt 144 48)(pt 128 48)(line_width 3))
	)
	(drawing
		(text "DFF" (rect 109 17 131 29)(font "Arial" ))
		(line (pt 16 16)(pt 128 16)(line_width 1))
		(line (pt 128 16)(pt 128 64)(line_width 1))
		(line (pt 128 64)(pt 16 64)(line_width 1))
		(line (pt 16 64)(pt 16 16)(line_width 1))
		(line (pt 16 42)(pt 22 48)(line_width 1))
		(line (pt 22 48)(pt 16 54)(line_width 1))
	)
)
(symbol
	(rect 2152 600 2296 680)
	(text "PS_DFF_14" (rect 37 1 120 17)(font "Arial" (font_size 10)))
	(text "inst59" (rect 8 64 37 76)(font "Arial" ))
	(port
		(pt 0 32)
		(input)
		(text "data[13..0]" (rect 0 0 60 14)(font "Arial" (font_size 8)))
		(text "data[13..0]" (rect 20 26 80 40)(font "Arial" (font_size 8)))
		(line (pt 0 32)(pt 16 32)(line_width 3))
	)
	(port
		(pt 0 48)
		(input)
		(text "clock" (rect 0 0 29 14)(font "Arial" (font_size 8)))
		(text "clock" (rect 26 42 55 56)(font "Arial" (font_size 8)))
		(line (pt 0 48)(pt 16 48)(line_width 1))
	)
	(port
		(pt 144 48)
		(output)
		(text "q[13..0]" (rect 0 0 42 14)(font "Arial" (font_size 8)))
		(text "q[13..0]" (rect 89 42 131 56)(font "Arial" (font_size 8)))
		(line (pt 144 48)(pt 128 48)(line_width 3))
	)
	(drawing
		(text "DFF" (rect 109 17 131 29)(font "Arial" ))
		(line (pt 16 16)(pt 128 16)(line_width 1))
		(line (pt 128 16)(pt 128 64)(line_width 1))
		(line (pt 128 64)(pt 16 64)(line_width 1))
		(line (pt 16 64)(pt 16 16)(line_width 1))
		(line (pt 16 42)(pt 22 48)(line_width 1))
		(line (pt 22 48)(pt 16 54)(line_width 1))
	)
)
(symbol
	(rect 2344 616 2488 696)
	(text "PS_DFF_14" (rect 37 1 120 17)(font "Arial" (font_size 10)))
	(text "inst60" (rect 8 64 37 76)(font "Arial" ))
	(port
		(pt 0 32)
		(input)
		(text "data[13..0]" (rect 0 0 60 14)(font "Arial" (font_size 8)))
		(text "data[13..0]" (rect 20 26 80 40)(font "Arial" (font_size 8)))
		(line (pt 0 32)(pt 16 32)(line_width 3))
	)
	(port
		(pt 0 48)
		(input)
		(text "clock" (rect 0 0 29 14)(font "Arial" (font_size 8)))
		(text "clock" (rect 26 42 55 56)(font "Arial" (font_size 8)))
		(line (pt 0 48)(pt 16 48)(line_width 1))
	)
	(port
		(pt 144 48)
		(output)
		(text "q[13..0]" (rect 0 0 42 14)(font "Arial" (font_size 8)))
		(text "q[13..0]" (rect 89 42 131 56)(font "Arial" (font_size 8)))
		(line (pt 144 48)(pt 128 48)(line_width 3))
	)
	(drawing
		(text "DFF" (rect 109 17 131 29)(font "Arial" ))
		(line (pt 16 16)(pt 128 16)(line_width 1))
		(line (pt 128 16)(pt 128 64)(line_width 1))
		(line (pt 128 64)(pt 16 64)(line_width 1))
		(line (pt 16 64)(pt 16 16)(line_width 1))
		(line (pt 16 42)(pt 22 48)(line_width 1))
		(line (pt 22 48)(pt 16 54)(line_width 1))
	)
)
(symbol
	(rect 2536 632 2680 712)
	(text "PS_DFF_14" (rect 37 1 120 17)(font "Arial" (font_size 10)))
	(text "inst61" (rect 8 64 37 76)(font "Arial" ))
	(port
		(pt 0 32)
		(input)
		(text "data[13..0]" (rect 0 0 60 14)(font "Arial" (font_size 8)))
		(text "data[13..0]" (rect 20 26 80 40)(font "Arial" (font_size 8)))
		(line (pt 0 32)(pt 16 32)(line_width 3))
	)
	(port
		(pt 0 48)
		(input)
		(text "clock" (rect 0 0 29 14)(font "Arial" (font_size 8)))
		(text "clock" (rect 26 42 55 56)(font "Arial" (font_size 8)))
		(line (pt 0 48)(pt 16 48)(line_width 1))
	)
	(port
		(pt 144 48)
		(output)
		(text "q[13..0]" (rect 0 0 42 14)(font "Arial" (font_size 8)))
		(text "q[13..0]" (rect 89 42 131 56)(font "Arial" (font_size 8)))
		(line (pt 144 48)(pt 128 48)(line_width 3))
	)
	(drawing
		(text "DFF" (rect 109 17 131 29)(font "Arial" ))
		(line (pt 16 16)(pt 128 16)(line_width 1))
		(line (pt 128 16)(pt 128 64)(line_width 1))
		(line (pt 128 64)(pt 16 64)(line_width 1))
		(line (pt 16 64)(pt 16 16)(line_width 1))
		(line (pt 16 42)(pt 22 48)(line_width 1))
		(line (pt 22 48)(pt 16 54)(line_width 1))
	)
)
(symbol
	(rect 2728 648 2872 728)
	(text "PS_DFF_14" (rect 37 1 120 17)(font "Arial" (font_size 10)))
	(text "inst62" (rect 8 64 37 76)(font "Arial" ))
	(port
		(pt 0 32)
		(input)
		(text "data[13..0]" (rect 0 0 60 14)(font "Arial" (font_size 8)))
		(text "data[13..0]" (rect 20 26 80 40)(font "Arial" (font_size 8)))
		(line (pt 0 32)(pt 16 32)(line_width 3))
	)
	(port
		(pt 0 48)
		(input)
		(text "clock" (rect 0 0 29 14)(font "Arial" (font_size 8)))
		(text "clock" (rect 26 42 55 56)(font "Arial" (font_size 8)))
		(line (pt 0 48)(pt 16 48)(line_width 1))
	)
	(port
		(pt 144 48)
		(output)
		(text "q[13..0]" (rect 0 0 42 14)(font "Arial" (font_size 8)))
		(text "q[13..0]" (rect 89 42 131 56)(font "Arial" (font_size 8)))
		(line (pt 144 48)(pt 128 48)(line_width 3))
	)
	(drawing
		(text "DFF" (rect 109 17 131 29)(font "Arial" ))
		(line (pt 16 16)(pt 128 16)(line_width 1))
		(line (pt 128 16)(pt 128 64)(line_width 1))
		(line (pt 128 64)(pt 16 64)(line_width 1))
		(line (pt 16 64)(pt 16 16)(line_width 1))
		(line (pt 16 42)(pt 22 48)(line_width 1))
		(line (pt 22 48)(pt 16 54)(line_width 1))
	)
)
(symbol
	(rect 2920 664 3064 744)
	(text "PS_DFF_14" (rect 37 1 120 17)(font "Arial" (font_size 10)))
	(text "inst63" (rect 8 64 37 76)(font "Arial" ))
	(port
		(pt 0 32)
		(input)
		(text "data[13..0]" (rect 0 0 60 14)(font "Arial" (font_size 8)))
		(text "data[13..0]" (rect 20 26 80 40)(font "Arial" (font_size 8)))
		(line (pt 0 32)(pt 16 32)(line_width 3))
	)
	(port
		(pt 0 48)
		(input)
		(text "clock" (rect 0 0 29 14)(font "Arial" (font_size 8)))
		(text "clock" (rect 26 42 55 56)(font "Arial" (font_size 8)))
		(line (pt 0 48)(pt 16 48)(line_width 1))
	)
	(port
		(pt 144 48)
		(output)
		(text "q[13..0]" (rect 0 0 42 14)(font "Arial" (font_size 8)))
		(text "q[13..0]" (rect 89 42 131 56)(font "Arial" (font_size 8)))
		(line (pt 144 48)(pt 128 48)(line_width 3))
	)
	(drawing
		(text "DFF" (rect 109 17 131 29)(font "Arial" ))
		(line (pt 16 16)(pt 128 16)(line_width 1))
		(line (pt 128 16)(pt 128 64)(line_width 1))
		(line (pt 128 64)(pt 16 64)(line_width 1))
		(line (pt 16 64)(pt 16 16)(line_width 1))
		(line (pt 16 42)(pt 22 48)(line_width 1))
		(line (pt 22 48)(pt 16 54)(line_width 1))
	)
)
(symbol
	(rect 3112 680 3256 760)
	(text "PS_DFF_14" (rect 37 1 120 17)(font "Arial" (font_size 10)))
	(text "inst64" (rect 8 64 37 76)(font "Arial" ))
	(port
		(pt 0 32)
		(input)
		(text "data[13..0]" (rect 0 0 60 14)(font "Arial" (font_size 8)))
		(text "data[13..0]" (rect 20 26 80 40)(font "Arial" (font_size 8)))
		(line (pt 0 32)(pt 16 32)(line_width 3))
	)
	(port
		(pt 0 48)
		(input)
		(text "clock" (rect 0 0 29 14)(font "Arial" (font_size 8)))
		(text "clock" (rect 26 42 55 56)(font "Arial" (font_size 8)))
		(line (pt 0 48)(pt 16 48)(line_width 1))
	)
	(port
		(pt 144 48)
		(output)
		(text "q[13..0]" (rect 0 0 42 14)(font "Arial" (font_size 8)))
		(text "q[13..0]" (rect 89 42 131 56)(font "Arial" (font_size 8)))
		(line (pt 144 48)(pt 128 48)(line_width 3))
	)
	(drawing
		(text "DFF" (rect 109 17 131 29)(font "Arial" ))
		(line (pt 16 16)(pt 128 16)(line_width 1))
		(line (pt 128 16)(pt 128 64)(line_width 1))
		(line (pt 128 64)(pt 16 64)(line_width 1))
		(line (pt 16 64)(pt 16 16)(line_width 1))
		(line (pt 16 42)(pt 22 48)(line_width 1))
		(line (pt 22 48)(pt 16 54)(line_width 1))
	)
)
(symbol
	(rect 3304 696 3448 776)
	(text "PS_DFF_14" (rect 37 1 120 17)(font "Arial" (font_size 10)))
	(text "inst65" (rect 8 64 37 76)(font "Arial" ))
	(port
		(pt 0 32)
		(input)
		(text "data[13..0]" (rect 0 0 60 14)(font "Arial" (font_size 8)))
		(text "data[13..0]" (rect 20 26 80 40)(font "Arial" (font_size 8)))
		(line (pt 0 32)(pt 16 32)(line_width 3))
	)
	(port
		(pt 0 48)
		(input)
		(text "clock" (rect 0 0 29 14)(font "Arial" (font_size 8)))
		(text "clock" (rect 26 42 55 56)(font "Arial" (font_size 8)))
		(line (pt 0 48)(pt 16 48)(line_width 1))
	)
	(port
		(pt 144 48)
		(output)
		(text "q[13..0]" (rect 0 0 42 14)(font "Arial" (font_size 8)))
		(text "q[13..0]" (rect 89 42 131 56)(font "Arial" (font_size 8)))
		(line (pt 144 48)(pt 128 48)(line_width 3))
	)
	(drawing
		(text "DFF" (rect 109 17 131 29)(font "Arial" ))
		(line (pt 16 16)(pt 128 16)(line_width 1))
		(line (pt 128 16)(pt 128 64)(line_width 1))
		(line (pt 128 64)(pt 16 64)(line_width 1))
		(line (pt 16 64)(pt 16 16)(line_width 1))
		(line (pt 16 42)(pt 22 48)(line_width 1))
		(line (pt 22 48)(pt 16 54)(line_width 1))
	)
)
(connector
	(text "ck" (rect 194 120 205 132)(font "Arial" ))
	(pt 232 128)
	(pt 216 128)
)
(connector
	(text "ck" (rect 386 136 397 148)(font "Arial" ))
	(pt 424 144)
	(pt 408 144)
)
(connector
	(pt 376 128)
	(pt 424 128)
	(bus)
)
(connector
	(text "ck" (rect 578 152 589 164)(font "Arial" ))
	(pt 616 160)
	(pt 600 160)
)
(connector
	(pt 568 144)
	(pt 616 144)
	(bus)
)
(connector
	(text "ck" (rect 770 168 781 180)(font "Arial" ))
	(pt 808 176)
	(pt 792 176)
)
(connector
	(pt 760 160)
	(pt 808 160)
	(bus)
)
(connector
	(text "ck" (rect 962 184 973 196)(font "Arial" ))
	(pt 1000 192)
	(pt 984 192)
)
(connector
	(pt 952 176)
	(pt 1000 176)
	(bus)
)
(connector
	(text "ck" (rect 1154 200 1165 212)(font "Arial" ))
	(pt 1192 208)
	(pt 1176 208)
)
(connector
	(pt 1144 192)
	(pt 1192 192)
	(bus)
)
(connector
	(text "ck" (rect 1346 216 1357 228)(font "Arial" ))
	(pt 1384 224)
	(pt 1368 224)
)
(connector
	(pt 1336 208)
	(pt 1384 208)
	(bus)
)
(connector
	(text "ck" (rect 1538 232 1549 244)(font "Arial" ))
	(pt 1576 240)
	(pt 1560 240)
)
(connector
	(pt 1528 224)
	(pt 1576 224)
	(bus)
)
(connector
	(text "ck" (rect 1730 248 1741 260)(font "Arial" ))
	(pt 1768 256)
	(pt 1752 256)
)
(connector
	(pt 1720 240)
	(pt 1768 240)
	(bus)
)
(connector
	(text "ck" (rect 1922 264 1933 276)(font "Arial" ))
	(pt 1960 272)
	(pt 1944 272)
)
(connector
	(pt 1912 256)
	(pt 1960 256)
	(bus)
)
(connector
	(text "ck" (rect 2114 280 2125 292)(font "Arial" ))
	(pt 2152 288)
	(pt 2136 288)
)
(connector
	(pt 2104 272)
	(pt 2152 272)
	(bus)
)
(connector
	(text "ck" (rect 2306 296 2317 308)(font "Arial" ))
	(pt 2344 304)
	(pt 2328 304)
)
(connector
	(pt 2296 288)
	(pt 2344 288)
	(bus)
)
(connector
	(text "ck" (rect 2498 312 2509 324)(font "Arial" ))
	(pt 2536 320)
	(pt 2520 320)
)
(connector
	(pt 2488 304)
	(pt 2536 304)
	(bus)
)
(connector
	(text "ck" (rect 2690 328 2701 340)(font "Arial" ))
	(pt 2728 336)
	(pt 2712 336)
)
(connector
	(pt 2680 320)
	(pt 2728 320)
	(bus)
)
(connector
	(text "ck" (rect 2882 344 2893 356)(font "Arial" ))
	(pt 2920 352)
	(pt 2904 352)
)
(connector
	(pt 2872 336)
	(pt 2920 336)
	(bus)
)
(connector
	(text "ck" (rect 3074 360 3085 372)(font "Arial" ))
	(pt 3112 368)
	(pt 3096 368)
)
(connector
	(pt 3064 352)
	(pt 3112 352)
	(bus)
)
(connector
	(text "1a[13..0]" (rect 3266 352 3309 364)(font "Arial" ))
	(pt 3256 368)
	(pt 3304 368)
	(bus)
)
(connector
	(text "ck" (rect 194 240 205 252)(font "Arial" ))
	(pt 232 248)
	(pt 216 248)
)
(connector
	(text "ck" (rect 386 256 397 268)(font "Arial" ))
	(pt 424 264)
	(pt 408 264)
)
(connector
	(pt 376 248)
	(pt 424 248)
	(bus)
)
(connector
	(text "ck" (rect 578 272 589 284)(font "Arial" ))
	(pt 616 280)
	(pt 600 280)
)
(connector
	(pt 568 264)
	(pt 616 264)
	(bus)
)
(connector
	(text "ck" (rect 770 288 781 300)(font "Arial" ))
	(pt 808 296)
	(pt 792 296)
)
(connector
	(pt 760 280)
	(pt 808 280)
	(bus)
)
(connector
	(text "ck" (rect 962 304 973 316)(font "Arial" ))
	(pt 1000 312)
	(pt 984 312)
)
(connector
	(pt 952 296)
	(pt 1000 296)
	(bus)
)
(connector
	(text "ck" (rect 1154 320 1165 332)(font "Arial" ))
	(pt 1192 328)
	(pt 1176 328)
)
(connector
	(pt 1144 312)
	(pt 1192 312)
	(bus)
)
(connector
	(text "ck" (rect 1346 336 1357 348)(font "Arial" ))
	(pt 1384 344)
	(pt 1368 344)
)
(connector
	(pt 1336 328)
	(pt 1384 328)
	(bus)
)
(connector
	(text "ck" (rect 1538 352 1549 364)(font "Arial" ))
	(pt 1576 360)
	(pt 1560 360)
)
(connector
	(pt 1528 344)
	(pt 1576 344)
	(bus)
)
(connector
	(text "ck" (rect 1730 368 1741 380)(font "Arial" ))
	(pt 1768 376)
	(pt 1752 376)
)
(connector
	(pt 1720 360)
	(pt 1768 360)
	(bus)
)
(connector
	(text "ck" (rect 1922 384 1933 396)(font "Arial" ))
	(pt 1960 392)
	(pt 1944 392)
)
(connector
	(pt 1912 376)
	(pt 1960 376)
	(bus)
)
(connector
	(text "ck" (rect 2114 400 2125 412)(font "Arial" ))
	(pt 2152 408)
	(pt 2136 408)
)
(connector
	(pt 2104 392)
	(pt 2152 392)
	(bus)
)
(connector
	(text "ck" (rect 2306 416 2317 428)(font "Arial" ))
	(pt 2344 424)
	(pt 2328 424)
)
(connector
	(pt 2296 408)
	(pt 2344 408)
	(bus)
)
(connector
	(text "ck" (rect 2498 432 2509 444)(font "Arial" ))
	(pt 2536 440)
	(pt 2520 440)
)
(connector
	(pt 2488 424)
	(pt 2536 424)
	(bus)
)
(connector
	(text "ck" (rect 2690 448 2701 460)(font "Arial" ))
	(pt 2728 456)
	(pt 2712 456)
)
(connector
	(pt 2680 440)
	(pt 2728 440)
	(bus)
)
(connector
	(text "ck" (rect 2882 464 2893 476)(font "Arial" ))
	(pt 2920 472)
	(pt 2904 472)
)
(connector
	(pt 2872 456)
	(pt 2920 456)
	(bus)
)
(connector
	(text "ck" (rect 3074 480 3085 492)(font "Arial" ))
	(pt 3112 488)
	(pt 3096 488)
)
(connector
	(pt 3064 472)
	(pt 3112 472)
	(bus)
)
(connector
	(text "1a[13..0]" (rect 194 216 237 228)(font "Arial" ))
	(pt 184 232)
	(pt 232 232)
	(bus)
)
(connector
	(text "ck" (rect 194 360 205 372)(font "Arial" ))
	(pt 232 368)
	(pt 216 368)
)
(connector
	(text "ck" (rect 386 376 397 388)(font "Arial" ))
	(pt 424 384)
	(pt 408 384)
)
(connector
	(pt 376 368)
	(pt 424 368)
	(bus)
)
(connector
	(text "ck" (rect 578 392 589 404)(font "Arial" ))
	(pt 616 400)
	(pt 600 400)
)
(connector
	(pt 568 384)
	(pt 616 384)
	(bus)
)
(connector
	(text "ck" (rect 770 408 781 420)(font "Arial" ))
	(pt 808 416)
	(pt 792 416)
)
(connector
	(pt 760 400)
	(pt 808 400)
	(bus)
)
(connector
	(text "ck" (rect 962 424 973 436)(font "Arial" ))
	(pt 1000 432)
	(pt 984 432)
)
(connector
	(pt 952 416)
	(pt 1000 416)
	(bus)
)
(connector
	(text "ck" (rect 1154 440 1165 452)(font "Arial" ))
	(pt 1192 448)
	(pt 1176 448)
)
(connector
	(pt 1144 432)
	(pt 1192 432)
	(bus)
)
(connector
	(text "ck" (rect 1346 456 1357 468)(font "Arial" ))
	(pt 1384 464)
	(pt 1368 464)
)
(connector
	(pt 1336 448)
	(pt 1384 448)
	(bus)
)
(connector
	(text "ck" (rect 1538 472 1549 484)(font "Arial" ))
	(pt 1576 480)
	(pt 1560 480)
)
(connector
	(pt 1528 464)
	(pt 1576 464)
	(bus)
)
(connector
	(text "ck" (rect 1730 488 1741 500)(font "Arial" ))
	(pt 1768 496)
	(pt 1752 496)
)
(connector
	(pt 1720 480)
	(pt 1768 480)
	(bus)
)
(connector
	(text "ck" (rect 1922 504 1933 516)(font "Arial" ))
	(pt 1960 512)
	(pt 1944 512)
)
(connector
	(pt 1912 496)
	(pt 1960 496)
	(bus)
)
(connector
	(text "ck" (rect 2114 520 2125 532)(font "Arial" ))
	(pt 2152 528)
	(pt 2136 528)
)
(connector
	(pt 2104 512)
	(pt 2152 512)
	(bus)
)
(connector
	(text "ck" (rect 2306 536 2317 548)(font "Arial" ))
	(pt 2344 544)
	(pt 2328 544)
)
(connector
	(pt 2296 528)
	(pt 2344 528)
	(bus)
)
(connector
	(text "ck" (rect 2498 552 2509 564)(font "Arial" ))
	(pt 2536 560)
	(pt 2520 560)
)
(connector
	(pt 2488 544)
	(pt 2536 544)
	(bus)
)
(connector
	(text "ck" (rect 2690 568 2701 580)(font "Arial" ))
	(pt 2728 576)
	(pt 2712 576)
)
(connector
	(pt 2680 560)
	(pt 2728 560)
	(bus)
)
(connector
	(text "ck" (rect 2882 584 2893 596)(font "Arial" ))
	(pt 2920 592)
	(pt 2904 592)
)
(connector
	(pt 2872 576)
	(pt 2920 576)
	(bus)
)
(connector
	(text "ck" (rect 3074 600 3085 612)(font "Arial" ))
	(pt 3112 608)
	(pt 3096 608)
)
(connector
	(pt 3064 592)
	(pt 3112 592)
	(bus)
)
(connector
	(text "ck" (rect 194 480 205 492)(font "Arial" ))
	(pt 232 488)
	(pt 216 488)
)
(connector
	(text "ck" (rect 386 496 397 508)(font "Arial" ))
	(pt 424 504)
	(pt 408 504)
)
(connector
	(pt 376 488)
	(pt 424 488)
	(bus)
)
(connector
	(text "ck" (rect 578 512 589 524)(font "Arial" ))
	(pt 616 520)
	(pt 600 520)
)
(connector
	(pt 568 504)
	(pt 616 504)
	(bus)
)
(connector
	(text "ck" (rect 770 528 781 540)(font "Arial" ))
	(pt 808 536)
	(pt 792 536)
)
(connector
	(pt 760 520)
	(pt 808 520)
	(bus)
)
(connector
	(text "ck" (rect 962 544 973 556)(font "Arial" ))
	(pt 1000 552)
	(pt 984 552)
)
(connector
	(pt 952 536)
	(pt 1000 536)
	(bus)
)
(connector
	(text "ck" (rect 1154 560 1165 572)(font "Arial" ))
	(pt 1192 568)
	(pt 1176 568)
)
(connector
	(pt 1144 552)
	(pt 1192 552)
	(bus)
)
(connector
	(text "ck" (rect 1346 576 1357 588)(font "Arial" ))
	(pt 1384 584)
	(pt 1368 584)
)
(connector
	(pt 1336 568)
	(pt 1384 568)
	(bus)
)
(connector
	(text "ck" (rect 1538 592 1549 604)(font "Arial" ))
	(pt 1576 600)
	(pt 1560 600)
)
(connector
	(pt 1528 584)
	(pt 1576 584)
	(bus)
)
(connector
	(text "ck" (rect 1730 608 1741 620)(font "Arial" ))
	(pt 1768 616)
	(pt 1752 616)
)
(connector
	(pt 1720 600)
	(pt 1768 600)
	(bus)
)
(connector
	(text "ck" (rect 1922 624 1933 636)(font "Arial" ))
	(pt 1960 632)
	(pt 1944 632)
)
(connector
	(pt 1912 616)
	(pt 1960 616)
	(bus)
)
(connector
	(text "ck" (rect 2114 640 2125 652)(font "Arial" ))
	(pt 2152 648)
	(pt 2136 648)
)
(connector
	(pt 2104 632)
	(pt 2152 632)
	(bus)
)
(connector
	(text "ck" (rect 2306 656 2317 668)(font "Arial" ))
	(pt 2344 664)
	(pt 2328 664)
)
(connector
	(pt 2296 648)
	(pt 2344 648)
	(bus)
)
(connector
	(text "ck" (rect 2498 672 2509 684)(font "Arial" ))
	(pt 2536 680)
	(pt 2520 680)
)
(connector
	(pt 2488 664)
	(pt 2536 664)
	(bus)
)
(connector
	(text "ck" (rect 2690 688 2701 700)(font "Arial" ))
	(pt 2728 696)
	(pt 2712 696)
)
(connector
	(pt 2680 680)
	(pt 2728 680)
	(bus)
)
(connector
	(text "ck" (rect 2882 704 2893 716)(font "Arial" ))
	(pt 2920 712)
	(pt 2904 712)
)
(connector
	(pt 2872 696)
	(pt 2920 696)
	(bus)
)
(connector
	(text "ck" (rect 3074 720 3085 732)(font "Arial" ))
	(pt 3112 728)
	(pt 3096 728)
)
(connector
	(text "2a[13..0]" (rect 3266 472 3309 484)(font "Arial" ))
	(pt 3256 488)
	(pt 3304 488)
	(bus)
)
(connector
	(pt 232 112)
	(pt 200 112)
	(bus)
)
(connector
	(text "2a[13..0]" (rect 194 336 237 348)(font "Arial" ))
	(pt 184 352)
	(pt 232 352)
	(bus)
)
(connector
	(text "3a[13..0]" (rect 194 456 237 468)(font "Arial" ))
	(pt 184 472)
	(pt 232 472)
	(bus)
)
(connector
	(text "3a[13..0]" (rect 3266 592 3309 604)(font "Arial" ))
	(pt 3256 608)
	(pt 3304 608)
	(bus)
)
(connector
	(text "ck" (rect 3266 736 3277 748)(font "Arial" ))
	(pt 3304 744)
	(pt 3288 744)
)
(connector
	(pt 3064 712)
	(pt 3112 712)
	(bus)
)
(connector
	(pt 3256 728)
	(pt 3304 728)
	(bus)
)
(connector
	(pt 3448 744)
	(pt 3464 744)
	(bus)
)
